name|description|type|sourcefile|rotate|width|height|refresh|bios|parent|status|manufacter
getstar|Guardian [Protection MCU not emulated]|parent|toaplan/slapfght.cpp|0|||||||Taito
gprider|GP Rider (set 2, World, FD1094 317-0163)|parent|sega/segaxbd.cpp|0|||||||Sega
opwolf|Operation Wolf (World) [Protection C-Chip not emulated]|parent|taito/opwolf.cpp|0|||||||Taito
1941j|1941 - Counter Attack (Japan)|clone|capcom/cps1.cpp|270|||||1941||Capcom\CPS1
1941|1941 - Counter Attack (World)|parent|capcom/cps1.cpp|270|||||||Capcom\CPS1
1944j|1944 - the loop master (000620 Japan)|clone|capcom/cps2.cpp|0|||||1944||Capcom\CPS2/Eighting/Raizing
1944|1944 - the loop master (000620 USA)|parent|capcom/cps2.cpp|0|||||||Capcom\CPS2/Eighting/Raizing
19xxa|19XX - the war against destiny (951207 Asia)|clone|capcom/cps2.cpp|270|||||19xx||Capcom\CPS2
19xxjr1|19XX - the war against destiny (951207 Japan)|clone|capcom/cps2.cpp|270|||||19xx||Capcom\CPS2
19xx|19XX - the war against destiny (951207 USA)|parent|capcom/cps2.cpp|270|||||||Capcom\CPS2
19xxh|19XX - the war against destiny (951218 Hispanic)|clone|capcom/cps2.cpp|270|||||19xx||Capcom\CPS2
19xxj|19XX - the war against destiny (951225 Japan)|clone|capcom/cps2.cpp|270|||||19xx||Capcom\CPS2
2020bb|2020 Super Baseball (set 1)|parent|neogeo/neogeo.cpp|0||||neogeo|||neogeo/Pallas/SNK
2020bba|2020 Super Baseball (set 2)|clone|neogeo/neogeo.cpp|0||||neogeo|2020bb||neogeo/Pallas/SNK
2020bbh|2020 Super Baseball (set 3)|clone|neogeo/neogeo.cpp|0||||neogeo|2020bb||neogeo/Pallas/SNK
3countb|3 Count Bout|parent|neogeo/neogeo.cpp|0||||neogeo|||neogeo/SNK
abcop|A.B. Cop (FD1094 317-0169b)|parent|sega/segaxbd.cpp|0|||||||Sega
afighter|Action Fighter, FD1089A 317-0018|parent|sega/segas16a.cpp|270|||||||Sega\System16
sonicwi2|Aero Fighters 2|parent|neogeo/neogeo.cpp|0||||neogeo|||neogeo/Video System
sonicwi3|Aero Fighters 3|parent|neogeo/neogeo.cpp|0||||neogeo|||neogeo/Video System
aburner|After Burner (Japan)|clone|sega/segaxbd.cpp|0|||||aburner2||Sega
aburner2|After Burner II|parent|sega/segaxbd.cpp|0|||||||Sega
aodk|Aggressors of Dark Kombat|parent|neogeo/neogeo.cpp|0||||neogeo|||ADK/neogeo/SNK
agallet|Air Gallet|parent|misc/cave.cpp|270|||||||BanPresto/Gazelle
alexkid1|Alex Kidd: The Lost Stars (set 1, FD1089A 317-unknown) [Incomplete Sound]|clone|sega/segas16a.cpp|0|||||alexkidd||Sega\System16
alexkidd|Alex Kidd: The Lost Stars (set 2, unprotected) [Incomplete Sound]|parent|sega/segas16a.cpp|0|||||||Sega\System16
aliensy1|Alien Syndrome (set 1, System 16A, FD1089A 317-0033) [Incomplete Sound]|clone|sega/segas16b.cpp|0|||||aliensyn||Sega\System16
aliensy2|Alien Syndrome (set 2, System 16A, FD1089A 317-0033) [Incomplete Sound]|clone|sega/segas16b.cpp|0|||||aliensyn||Sega\System16
aliensy3|Alien Syndrome (set 3, System 16B, FD1089A 317-0033) [Incomplete Sound]|clone|sega/segas16b.cpp|0|||||aliensyn||Sega\System16
aliensyn|Alien Syndrome (set 4, System 16B, unprotected) [Incomplete Sound]|parent|sega/segas16b.cpp|0|||||||Sega\System16
avspa|Alien vs Predator (940520 Asia)|clone|capcom/cps2.cpp|0|||||avsp||Capcom\CPS2
avsp|Alien vs Predator (940520 Euro)|parent|capcom/cps2.cpp|0|||||||Capcom\CPS2
avsph|Alien vs Predator (940520 Hispanic)|clone|capcom/cps2.cpp|0|||||avsp||Capcom\CPS2
avspj|Alien vs Predator (940520 Japan)|clone|capcom/cps2.cpp|0|||||avsp||Capcom\CPS2
avspu|Alien vs Predator (940520 USA)|clone|capcom/cps2.cpp|0|||||avsp||Capcom\CPS2
alpham2|Alpha Mission II|parent|neogeo/neogeo.cpp|0||||neogeo|||neogeo/SNK
altbeas2|Altered Beast (set 2, MC-8123B 317-0066) [No Sound]|clone|sega/segas16b.cpp|0|||||altbeast||Sega\System16
altbeas4|Altered Beast (set 4, MC-8123B 317-0066) [No Sound]|clone|sega/segas16b.cpp|0|||||altbeast||Sega\System16
altbeas5|Altered Beast (set 5, 8751 317-0076) [Incomplete Sound]|clone|sega/segas16b.cpp|0|||||altbeast||Sega\System16
altbeast|Altered Beast (set 7, 8751 317-0078) [Incomplete Sound]|parent|sega/segas16b.cpp|0|||||||Sega\System16
androdun|Andro Dunos|parent|neogeo/neogeo.cpp|0||||neogeo|||neogeo/Visco
area88|Area 88 (Japan)|clone|capcom/cps1.cpp|0|||||unsquad||Capcom\CPS1/Daipro
batrider|Armed police Batrider (Batrider ver. Fri Feb 13 1998, Japan)|parent|toaplan/toaplan2.cpp|270|||||||Eighting/Raizing
batridrk|Armed police Batrider (Batrider ver. Fri Feb 13 1998, Korea)|clone|toaplan/toaplan2.cpp|270|||||batrider||Eighting/Raizing
batridra|Armed police Batrider (Batrider ver. Mon Dec 22 1997, Japan)|clone|toaplan/toaplan2.cpp|270|||||batrider||Eighting/Raizing
armwara|Armored Warriors (940920 Asia)|clone|capcom/cps2.cpp|0|||||armwar||Capcom\CPS2
armwarr1|Armored Warriors (941011 Europe)|clone|capcom/cps2.cpp|0|||||armwar||Capcom\CPS2
armwar|Armored Warriors (941024 Europe)|parent|capcom/cps2.cpp|0|||||||Capcom\CPS2
armwaru|Armored Warriors (941024 USA)|clone|capcom/cps2.cpp|0|||||armwar||Capcom\CPS2
aof2|Art of Fighting 2 (set 1)|parent|neogeo/neogeo.cpp|0||||neogeo|||neogeo/SNK
aof2a|Art of Fighting 2 (set 2)|clone|neogeo/neogeo.cpp|0||||neogeo|aof2||neogeo/SNK
aof3k|Art of Fighting 3 - the path of the warrior (korean release)|clone|neogeo/neogeo.cpp|0||||neogeo|aof3||neogeo/SNK
aof3|Art of Fighting 3 - the path of the warrior|parent|neogeo/neogeo.cpp|0||||neogeo|||neogeo/SNK
aof|Art of Fighting|parent|neogeo/neogeo.cpp|0||||neogeo|||neogeo/SNK
aurailj|Aurail (set 1, Japan, FD1089A 317-0167) [Incomplete Sound]|clone|sega/segas16b.cpp|0|||||aurail||Sega\System16/Westone
aurail1|Aurail (set 2, World, FD1089B 317-0168) [Incomplete Sound]|clone|sega/segas16b.cpp|0|||||aurail||Sega\System16/Westone
aurail|Aurail (set 3, US, unprotected) [Incomplete Sound]|parent|sega/segas16b.cpp|0|||||||Sega\System16/Westone
bakatono|Bakatonosama Mahjong Manyuki|parent|neogeo/neogeo.cpp|0||||neogeo|||Monolith/neogeo
bangbead|Bang Bead|parent|neogeo/neogeo.cpp|0||||neogeo|||neogeo/Visco
bstars2|Baseball Stars 2|parent|neogeo/neogeo.cpp|0||||neogeo|||neogeo/SNK
bstars|Baseball Stars Professional|parent|neogeo/neogeo.cpp|0||||neogeo|||neogeo/SNK
batsugun|Batsugun (set 1) [No sound (sound MCU not dumped)]|parent|toaplan/toaplan2.cpp|270|||||||Toaplan
batsugna|Batsugun (set 2) [No sound (sound MCU not dumped)]|clone|toaplan/toaplan2.cpp|270|||||batsugun||Dual Toaplan
batugnsp|Batsugun Special Ver. [No sound (sound MCU not dumped)]|clone|toaplan/toaplan2.cpp|270|||||batsugun||Dual Toaplan
bbakraid|Battle Bakraid (ver. Wed Apr 7 1999)|parent|toaplan/toaplan2.cpp|270|||||||Eighting
bbakradu|Battle Bakraid - Unlimited Version (ver. Tue Jun 8 1999)|clone|toaplan/toaplan2.cpp|270|||||bbakraid||Eighting
batcira|Battle Circuit (970319 Asia)|clone|capcom/cps2.cpp|0|||||batcir||Capcom\CPS2
batcir|Battle Circuit (970319 Euro)|parent|capcom/cps2.cpp|0|||||||Capcom\CPS2
batcirj|Battle Circuit (970319 Japan)|clone|capcom/cps2.cpp|0|||||batcir||Capcom\CPS2
flipshot|Battle Flip Shot|parent|neogeo/neogeo.cpp|0||||neogeo|||neogeo/Visco
battlegc|Battle Garegga (Austria / Hong Kong) (ver. Sat Feb 3 1996)|clone|toaplan/toaplan2.cpp|270|||||battleg||Eighting/Raizing
battlegb|Battle Garegga (Austria / Hong Kong) (ver. Sat Mar 2 1996)|clone|toaplan/toaplan2.cpp|270|||||battleg||Eighting/Raizing
battleg|Battle Garegga (Denmark / China) (ver. Tue Apr 2 1996)|parent|toaplan/toaplan2.cpp|270|||||||Eighting/Raizing
battlega|Battle Garegga (Europe / USA / Japan / Asia) (ver. Sat Feb 3 1996)|clone|toaplan/toaplan2.cpp|270|||||battleg||Eighting/Raizing
btlkroad|Battle K-Road|parent|psikyo/psikyo.cpp|0|||||||Psikyo
bayrout1|Bay Route (set 1, US, unprotected) [No Sound, Missing Z80 Program ROM]|clone|sega/segas16b.cpp|0|||||bayroute||Sega\System16/Sunsoft
bayroutj|Bay Route (set 2, Japan, FD1094 317-0115) [Incomplete Sound]|clone|sega/segas16b.cpp|0|||||bayroute||Sega\System16/Sunsoft
bayroute|Bay Route (set 3, World, FD1094 317-0116) [Incomplete Sound]|parent|sega/segas16b.cpp|0|||||||Sega\System16/Sunsoft
biomtoy|Biomechanical Toy (unprotected)|parent|gaelco/gaelco.cpp|0|||||||Zeus
blazstar|Blazing Star|parent|neogeo/neogeo.cpp|0||||neogeo|||neogeo/Yumekobo
bjourney|Blue's Journey|parent|neogeo/neogeo.cpp|0||||neogeo|||Alpha Denshi/neogeo
bodyslam|Body Slam (8751 317-0015)|parent|sega/segas16a.cpp|0|||||||Sega\System16
bombjack|Bomb Jack (set 1)|parent|tecmo/bombjack.cpp|90|||||||Tehkan
bombjac2|Bomb Jack (set 2)|clone|tecmo/bombjack.cpp|90|||||bombjack||Tehkan
breakers|Breakers|parent|neogeo/neogeo.cpp|0||||neogeo|||neogeo/Visco
breakrev|Breakers Revenge|clone|neogeo/neogeo.cpp|0||||neogeo|breakers||neogeo/Visco
burningf|Burning Fight (set 1)|parent|neogeo/neogeo.cpp|0||||neogeo|||neogeo/SNK
burningh|Burning Fight (set 2)|clone|neogeo/neogeo.cpp|0||||neogeo|burningf||neogeo/SNK
dino|Cadillacs & Dinosaurs (930201 etc)|parent|capcom/cps1.cpp|0|||||||Capcom\CPS1
dinou|Cadillacs & Dinosaurs (930201 USA)|clone|capcom/cps1.cpp|0|||||dino||Capcom\CPS1
dinoj|Cadillacs Kyouryuu-Shinseiki (Cadillacs 930201 Japan)|clone|capcom/cps1.cpp|0|||||dino||Capcom\CPS1
cscluba|Capcom Sports Club (970722 Asia)|clone|capcom/cps2.cpp|0|||||csclub||Capcom\CPS2
csclub|Capcom Sports Club (970722 Euro)|parent|capcom/cps2.cpp|0|||||||Capcom\CPS2
csclubh|Capcom Sports Club (970722 Hispanic)|clone|capcom/cps2.cpp|0|||||csclub||Capcom\CPS2
csclubj|Capcom Sports Club (970722 Japan)|clone|capcom/cps2.cpp|0|||||csclub||Capcom\CPS2
cworld2j|Capcom World 2 (920611 Japan)|parent|capcom/cps1.cpp|0|||||||Capcom\CPS1
captcomu|Captain Commando (910928 USA)|clone|capcom/cps1.cpp|0|||||captcomm||Capcom\CPS1
captcomm|Captain Commando (911014 other country)|parent|capcom/cps1.cpp|0|||||||Capcom\CPS1
captcomj|Captain Commando (911202 Japan)|clone|capcom/cps1.cpp|0|||||captcomm||Capcom\CPS1
ctomaday|Captain Tomaday|parent|neogeo/neogeo.cpp|0||||neogeo|||neogeo/Visco
cawingr1|Carrier Air Wing (U.S. navy 901009 etc)|clone|capcom/cps1.cpp|0|||||cawing||Capcom\CPS1
cawing|Carrier Air Wing (U.S. navy 901012 etc)|parent|capcom/cps1.cpp|0|||||||Capcom\CPS1
cawingu|Carrier Air Wing (U.S. navy 901012 USA)|clone|capcom/cps1.cpp|0|||||cawing||Capcom\CPS1
marukodq|Chibi Marukochan Deluxe Quiz|parent|neogeo/neogeo.cpp|0||||neogeo|||neogeo/Takara
chikij|Chiki Chiki Boys (900619 Japan)|clone|capcom/cps1.cpp|0|||||mtwins||Capcom\CPS1
choko|Choko (010820 Japan)|parent|capcom/cps2.cpp|0|||||||Mitchell
cookbib2|Cookie & Bibi 2|parent|kaneko/snowbros.cpp|0|||||||SemiCom
cookbib3|Cookie & Bibi 3|parent|kaneko/snowbros.cpp|0|||||||SemiCom
cottonj|Cotton (set 1, Japan, FD1094 317-0179a)) [No Sound]|clone|sega/segas16b.cpp|0|||||cotton||Sega\System16/Success
cottonu|Cotton (set 2, US, FD1094 317-0180) [No Sound]|clone|sega/segas16b.cpp|0|||||cotton||Sega\System16/Success
cotton|Cotton (set 3, World, FD1094 317-0181a) [No Sound]|parent|sega/segas16b.cpp|0|||||||Sega\System16/Success
crsword|Crossed Swords|parent|neogeo/neogeo.cpp|0||||neogeo|||Alpha Denshi/neogeo
cthd2003|Crouching Tiger Hidden Dragon 2003 (bootleg) [Bootleg, Hack of The King of Fighters 2001]|clone|neogeo/neogeo.cpp|0||||neogeo|kof2001||neogeo/Phenixsoft
ct2k3sp|Crouching Tiger Hidden Dragon 2003 Super Plus (bootleg) [Bootleg, Hack of The King of Fighters 2001]|clone|neogeo/neogeo.cpp|0||||neogeo|kof2001||neogeo/Phenixsoft
cyberlip|Cyber-Lip|parent|neogeo/neogeo.cpp|0||||neogeo|||neogeo/SNK
cybotsj|Cyberbots - fullmetal madness (950420 Japan)|clone|capcom/cps2.cpp|0|||||cybots||Capcom\CPS2
cybots|Cyberbots - fullmetal madness (950424 Euro)|parent|capcom/cps2.cpp|0|||||||Capcom\CPS2
cybotsu|Cyberbots - fullmetal madness (950424 USA)|clone|capcom/cps2.cpp|0|||||cybots||Capcom\CPS2
daimakai|Dai Makai-Mura (Japan)|clone|capcom/cps1.cpp|0|||||ghouls||Capcom\CPS1
daisenpu|Daisenpu (Japan)|clone|taito/taito_x.cpp|270|||||twinhawk||Taito
dfeveron|Dangun Feveron (Japan ver. Thu Sep 17 1998)|parent|misc/cave.cpp|270|||||||Cave/Nihon System inc.
dstlka|Darkstalkers - the night warriors (940705 Asia)|clone|capcom/cps2.cpp|0|||||dstlk||Capcom\CPS2
dstlk|Darkstalkers - the night warriors (940705 Euro)|parent|capcom/cps2.cpp|0|||||||Capcom\CPS2
dstlkur1|Darkstalkers - the night warriors (940705 USA)|clone|capcom/cps2.cpp|0|||||dstlk||Capcom\CPS2
dstlku|Darkstalkers - the night warriors (940818 USA)|clone|capcom/cps2.cpp|0|||||dstlk||Capcom\CPS2
defense|Defense (System 16B, FD1089A 317-0028)|clone|sega/segas16b.cpp|0|||||sdi||Sega\System16
diggerma|Digger Man [Prototype]|parent|neogeo/neogeo.cpp|0||||neogeo|||Face/neogeo
dimahoo|Dimahoo (000121 USA)|parent|capcom/cps2.cpp|270|||||||Capcom\CPS2/Eighting/Raizing
ddonpach|DoDonPachi (1997 2/5 master ver, international)|parent|misc/cave.cpp|270|||||||Atlus/Cave
ddonpchj|DoDonPachi (1997 2/5 master ver, Japan)|clone|misc/cave.cpp|270|||||ddonpach||Atlus/Cave
dogyuun|Dogyuun [No sound (sound MCU not dumped)]|parent|toaplan/toaplan2.cpp|270|||||||Toaplan
donpacjp|DonPachi (ver. 1.01 1995/05/11, Japan)|clone|misc/cave.cpp|270|||||donpachi||Atlus/Cave
donpachi|DonPachi (ver. 1.01 1995/05/11, U.S.A)|parent|misc/cave.cpp|270|||||||Atlus/Cave
donpachk|DonPachi (ver. 1.12 1995/05/2x, Hong Kong)|clone|misc/cave.cpp|270|||||donpachi||Atlus/Cave
donpackr|DonPachi (ver. 1.12 1995/05/2x, Korea)|clone|misc/cave.cpp|270|||||donpachi||Atlus/Cave
doubledr|Double Dragon|parent|neogeo/neogeo.cpp|0||||neogeo|||neogeo/Technos
dumpmtmt|Dump Matsumoto (Japan, 8751 317-unknown)|clone|sega/segas16a.cpp|0|||||bodyslam||Sega\System16
ddsomjr1|Dungeons & Dragons - shadow over mystara (960206 Japan)|clone|capcom/cps2.cpp|0|||||ddsom||Capcom\CPS2
ddsomr3|Dungeons & Dragons - shadow over mystara (960208 Euro)|clone|capcom/cps2.cpp|0|||||ddsom||Capcom\CPS2
ddsomr2|Dungeons & Dragons - shadow over mystara (960209 Euro)|clone|capcom/cps2.cpp|0|||||ddsom||Capcom\CPS2
ddsomur1|Dungeons & Dragons - shadow over mystara (960209 USA)|clone|capcom/cps2.cpp|0|||||ddsom||Capcom\CPS2
ddsomb|Dungeons & Dragons - shadow over mystara (960223 Brazil)|clone|capcom/cps2.cpp|0|||||ddsom||Capcom\CPS2
ddsomr1|Dungeons & Dragons - shadow over mystara (960223 Euro)|clone|capcom/cps2.cpp|0|||||ddsom||Capcom\CPS2
ddsoma|Dungeons & Dragons - shadow over mystara (960619 Asia)|clone|capcom/cps2.cpp|0|||||ddsom||Capcom\CPS2
ddsom|Dungeons & Dragons - shadow over mystara (960619 Euro)|parent|capcom/cps2.cpp|0|||||||Capcom\CPS2
ddsomj|Dungeons & Dragons - shadow over mystara (960619 Japan)|clone|capcom/cps2.cpp|0|||||ddsom||Capcom\CPS2
ddsomu|Dungeons & Dragons - shadow over mystara (960619 USA)|clone|capcom/cps2.cpp|0|||||ddsom||Capcom\CPS2
ddtoda|Dungeons & Dragons - tower of doom (940113 Asia)|clone|capcom/cps2.cpp|0|||||ddtod||Capcom\CPS2
ddtodr1|Dungeons & Dragons - tower of doom (940113 Euro)|clone|capcom/cps2.cpp|0|||||ddtod||Capcom\CPS2
ddtodjr1|Dungeons & Dragons - tower of doom (940113 Japan)|clone|capcom/cps2.cpp|0|||||ddtod||Capcom\CPS2
ddtodur1|Dungeons & Dragons - tower of doom (940113 USA)|clone|capcom/cps2.cpp|0|||||ddtod||Capcom\CPS2
ddtodh|Dungeons & Dragons - tower of doom (940125 Hispanic)|clone|capcom/cps2.cpp|0|||||ddtod||Capcom\CPS2
ddtodj|Dungeons & Dragons - tower of doom (940125 Japan)|clone|capcom/cps2.cpp|0|||||ddtod||Capcom\CPS2
ddtodu|Dungeons & Dragons - tower of doom (940125 USA)|clone|capcom/cps2.cpp|0|||||ddtod||Capcom\CPS2
ddtod|Dungeons & Dragons - tower of doom (940412 Euro)|parent|capcom/cps2.cpp|0|||||||Capcom\CPS2
dunkshot|Dunk Shot (FD1089 317-0022)|parent|sega/segas16b.cpp|0|||||||Sega\System16
ddux1|Dynamite Dux (set 1, 8751 317-0095)|clone|sega/segas16b.cpp|0|||||ddux||Sega\System16
ddux|Dynamite Dux (set 2, FD1094 317-0096)|parent|sega/segas16b.cpp|0|||||||Sega\System16
dynwar|Dynasty Wars (World)|parent|capcom/cps1.cpp|0|||||||Capcom\CPS1
eswatj|E-Swat - Cyber Police (set 1, Japan, FD1094 317-0128) [Incomplete Sound]|clone|sega/segas16b.cpp|0|||||eswat||Sega\System16
eswatu|E-Swat - Cyber Police (set 2, US, FD1094 317-0129) [Incomplete Sound]|clone|sega/segas16b.cpp|0|||||eswat||Sega\System16
eswat|E-Swat - Cyber Police (set 3, World, FD1094 317-0130) [Incomplete Sound]|parent|sega/segas16b.cpp|0|||||||Sega\System16
ecofghta|Eco Fighters (931203 Asia)|clone|capcom/cps2.cpp|0|||||ecofghtr||Capcom\CPS2
ecofghtr|Eco Fighters (931203 etc)|parent|capcom/cps2.cpp|0|||||||Capcom\CPS2
ecofghtu|Eco Fighters (931203 USA)|clone|capcom/cps2.cpp|0|||||ecofghtr||Capcom\CPS2
eightman|Eight Man|parent|neogeo/neogeo.cpp|0||||neogeo|||neogeo/Pallas/SNK
endurobl|Enduro Racer (bootleg set 1) [Bootleg]|clone|sega/segahang.cpp|0|||||enduror||
enduror|Enduro Racer (YM2151, FD1089B 317-0013A) [Problem with PCM samples]|parent|sega/segahang.cpp|0|||||||Sega
enduror1|Enduro Racer (YM2203, FD1089B 317-0013A)|clone|sega/segahang.cpp|0|||||enduror||Sega
esprade|ESP Ra.De. (1998 4/22 international ver.)|parent|misc/cave.cpp|270|||||||Atlus/Cave
espradeo|ESP Ra.De. (Japan, 1998 4/14 master ver.)|clone|misc/cave.cpp|270|||||esprade||Atlus/Cave
espradej|ESP Ra.De. (Japan, 1998 4/21 master ver.)|clone|misc/cave.cpp|270|||||esprade||Atlus/Cave
fantzon1|Fantasy Zone (set 1, unprotected)|clone|sega/segas16a.cpp|0|||||fantzone||Sega\System16
fantzone|Fantasy Zone (set 2, unprotected)|parent|sega/segas16a.cpp|0|||||||Sega\System16
fatfury1|Fatal Fury - king of fighters|parent|neogeo/neogeo.cpp|0||||neogeo|||neogeo/SNK
fatfury2|Fatal Fury 2|parent|neogeo/neogeo.cpp|0||||neogeo|||neogeo/SNK
fatfury3|Fatal Fury 3 - road to the final victory|parent|neogeo/neogeo.cpp|0||||neogeo|||neogeo/SNK
fatfursp|Fatal Fury Special (set 1)|parent|neogeo/neogeo.cpp|0||||neogeo|||neogeo/SNK
fatfursa|Fatal Fury Special (set 2)|clone|neogeo/neogeo.cpp|0||||neogeo|fatfursp||neogeo/SNK
feversos|Fever SOS (International ver. Fri Sep 25 1998)|clone|misc/cave.cpp|270|||||dfeveron||Cave/Nihon System inc.
fightfev|Fight Fever (set 1)|parent|neogeo/neogeo.cpp|0||||neogeo|||neogeo/Viccom
fightfva|Fight Fever (set 2)|clone|neogeo/neogeo.cpp|0||||neogeo|fightfev||neogeo/Viccom
fswords|Fighters Swords (bootleg) [Bootleg, Korean version of Samurai Shodown III]|clone|neogeo/neogeo.cpp|0||||neogeo|samsho3||neogeo/SNK
ffightu|Final Fight (900112 USA)|clone|capcom/cps1.cpp|0|||||ffight||Capcom\CPS1
ffightj1|Final Fight (900305 Japan)|clone|capcom/cps1.cpp|0|||||ffight||Capcom\CPS1
ffightua|Final Fight (900613 USA)|clone|capcom/cps1.cpp|0|||||ffight||Capcom\CPS1
ffightj|Final Fight (Japan)|clone|capcom/cps1.cpp|0|||||ffight||Capcom\CPS1
ffight|Final Fight (World)|parent|capcom/cps1.cpp|0|||||||Capcom\CPS1
fstarfrc|Final Star Force (US)|parent|tecmo/tecmo16.cpp|90|||||||Tecmo
finalttr|Final Tetris|parent|kaneko/snowbros.cpp|0|||||||Jeil Computer System
fpoint1|Flash Point (set 1, Japan, FD1094 317-0127A)|clone|sega/segas16b.cpp|0|||||fpoint||Sega\System16
fpoint|Flash Point (set 2, Japan, FD1094 317-0127A)|parent|sega/segas16b.cpp|0|||||||Sega\System16
fbfrenzy|Football Frenzy|parent|neogeo/neogeo.cpp|0||||neogeo|||neogeo/SNK
forgottn|Forgotten Worlds (US)|parent|capcom/cps1.cpp|0|||||||Capcom\CPS1
gloc|G-LOC Air Battle (US)|parent|sega/segaybd.cpp|0|||||||Sega
glocr360|G-LOC R360|clone|sega/segaybd.cpp|0|||||gloc||Sega
gaia|Gaia Crusaders|parent|misc/cave.cpp|0|||||||Noise Factory
galaxyfg|Galaxy Fight - universal warriors|parent|neogeo/neogeo.cpp|0||||neogeo|||neogeo/Sunsoft
gforce2|Galaxy Force 2|parent|sega/segaybd.cpp|0|||||||Sega
gforce2j|Galaxy Force 2 (Japan)|clone|sega/segaybd.cpp|0|||||gforce2||Sega
ganryu|Ganryu|parent|neogeo/neogeo.cpp|0||||neogeo|||neogeo/Visco
garoubl|Garou - mark of the wolves (bootleg) [Bootleg]|clone|neogeo/neogeo.cpp|0||||neogeo|garou||neogeo
garoup|Garou - mark of the wolves (prototype) [Prototype]|clone|neogeo/neogeo.cpp|0||||neogeo|garou||neogeo/SNK
garou|Garou - mark of the wolves (set 1)|parent|neogeo/neogeo.cpp|0||||neogeo|||neogeo/SNK
garouo|Garou - mark of the wolves (set 2)|clone|neogeo/neogeo.cpp|0||||neogeo|garou||neogeo/SNK
gensitou|Genshi-Tou 1930's (Japan) [Incomplete Sound]|clone|snk/prehisle.cpp|0|||||prehisle||SNK
getstarb|Get Star (bootleg, set 1) [Bootleg]|clone|toaplan/slapfght.cpp|0|||||getstar||Taito
gtstarba|Get Star (bootleg, set 2) [Bootleg]|clone|toaplan/slapfght.cpp|0|||||getstar||Taito
gpilots|Ghost Pilots|parent|neogeo/neogeo.cpp|0||||neogeo|||neogeo/SNK
ghostlop|Ghostlop [Prototype]|parent|neogeo/neogeo.cpp|0||||neogeo|||Data East/neogeo
ghoulsu|Ghouls'n Ghosts (US)|clone|capcom/cps1.cpp|0|||||ghouls||Capcom\CPS1
ghouls|Ghouls'n Ghosts (World)|parent|capcom/cps1.cpp|0|||||||Capcom\CPS1
gwinga|Giga Wing (990222 Asia)|clone|capcom/cps2.cpp|0|||||gigawing||Capcom\CPS2
gigawing|Giga Wing (990222 USA)|parent|capcom/cps2.cpp|0|||||||Capcom\CPS2
gwingj|Giga Wing (990223 Japan)|clone|capcom/cps2.cpp|0|||||gigawing||Capcom\CPS2
goalx3|Goal! Goal! Goal!|parent|neogeo/neogeo.cpp|0||||neogeo|||neogeo/Visco
goldnax1|Golden Axe (set 1, World, FD1094 317-0110) [Incomplete Sound]|clone|sega/segas16b.cpp|0|||||goldnaxe||Sega\System16
goldnax2|Golden Axe (set 2, US, 8751 317-0112) [Incomplete Sound]|clone|sega/segas16b.cpp|0|||||goldnaxe||Sega\System16
goldnax3|Golden Axe (set 3, World, FD1094 317-0120) [Incomplete Sound]|clone|sega/segas16b.cpp|0|||||goldnaxe||Sega\System16
goldnaxj|Golden Axe (set 4, Japan, FD1094 317-0121) [Incomplete Sound]|clone|sega/segas16b.cpp|0|||||goldnaxe||Sega\System16
goldnaxu|Golden Axe (set 5, US, FD1094 317-0122) [Incomplete Sound]|clone|sega/segas16b.cpp|0|||||goldnaxe||Sega\System16
goldnaxe|Golden Axe (set 6, US, 8751 317-123A) [Incomplete Sound]|parent|sega/segas16b.cpp|0|||||||Sega\System16
gprider1|GP Rider (set 1, US, FD1094 317-0162)|clone|sega/segaxbd.cpp|0|||||gprider||Sega
gmahou|Great Mahou Daisakusen (000121 Japan)|clone|capcom/cps2.cpp|270|||||dimahoo||Capcom\CPS2/Eighting/Raizing
grindsta|Grind Stormer (older set) [No sound (sound MCU not dumped)]|clone|toaplan/toaplan2.cpp|270|||||vfive||Toaplan
grindstm|Grind Stormer [No sound (sound MCU not dumped)]|clone|toaplan/toaplan2.cpp|270|||||vfive||Toaplan
gunbirdj|Gunbird (Japan)|clone|psikyo/psikyo.cpp|270|||||gunbird||Psikyo
gunbirdk|Gunbird (Korea)|clone|psikyo/psikyo.cpp|270|||||gunbird||Psikyo
gunbird|Gunbird (World)|parent|psikyo/psikyo.cpp|270|||||||Psikyo
gururin|Gururin|parent|neogeo/neogeo.cpp|0||||neogeo|||Face/neogeo
guwange|Guwange (Japan, 1999 6/24 master ver.)|parent|misc/cave.cpp|270|||||||Atlus/Cave
hangon|Hang-On|parent|sega/segahang.cpp|0|||||||Sega
hwchamp|Heavyweight Champ|parent|sega/segas16b.cpp|0|||||||Sega\System16
hellfir1|Hellfire (1P Ver.)|clone|toaplan/toaplan1.cpp|0|||||hellfire||Taito/Toaplan
hellfire|Hellfire (2P Ver.)|parent|toaplan/toaplan1.cpp|0|||||||Taito/Toaplan
hellfir2|Hellfire (2P Ver., first edition)|clone|toaplan/toaplan1.cpp|0|||||hellfire||Taito/Toaplan
hyperpac|Hyper Pacman|parent|kaneko/snowbros.cpp|0|||||||SemiCom
hyperpcb|Hyper Pacman (bootleg) [Bootleg]|clone|kaneko/snowbros.cpp|0|||||hyperpac||SemiCom
hsf2j|Hyper Street Fighter 2: The Anniversary Edition (031222 Japan)|clone|capcom/cps2.cpp|0|||||hsf2||Capcom\CPS2
hsf2|Hyper Street Fighter 2: The Anniversary Edition (040202 Asia)|parent|capcom/cps2.cpp|0|||||||Capcom\CPS2
jockeygp|Jockey Grand Prix|parent|neogeo/neogeo.cpp|0||||neogeo|||Brezzasoft/neogeo/Sun Amazement
altbeaj3|Juuouki (set 3, Japan, FD1094 317-0068) [Incomplete Sound]|clone|sega/segas16b.cpp|0|||||altbeast||Sega\System16
altbeasj|Juuouki (set 6, Japan, 8751 317-0077) [Incomplete Sound]|clone|sega/segas16b.cpp|0|||||altbeast||Sega\System16
jyangoku|Jyangokushi -Haoh no Saihai- (990527 Japan)|parent|capcom/cps2.cpp|0|||||||Mitchell
janshin|Jyanshin Densetsu - quest of jongmaster|parent|neogeo/neogeo.cpp|0||||neogeo|||Aicom/neogeo
kabukikl|Kabuki Klash - far east of eden|parent|neogeo/neogeo.cpp|0||||neogeo|||Hudson Soft/neogeo
karnovr|Karnov's Revenge|parent|neogeo/neogeo.cpp|0||||neogeo|||Data East/neogeo
kog|King of Gladiator (bootleg) [Bootleg, bootleg of The King of Fighters '97]|clone|neogeo/neogeo.cpp|0||||neogeo|kof97||neogeo
kotm|King of the Monsters (set 1)|parent|neogeo/neogeo.cpp|0||||neogeo|||neogeo/SNK
kotmh|King of the Monsters (set 2)|clone|neogeo/neogeo.cpp|0||||neogeo|kotm||neogeo/SNK
kotm2|King of the Monsters 2 - the next thing|parent|neogeo/neogeo.cpp|0||||neogeo|||neogeo/SNK
kingdmgp|Kingdom Grandprix (World)|clone|toaplan/toaplan2.cpp|270|||||shippumd||Eighting/Raizing
kizuna|Kizuna Encounter - super tag battle|parent|neogeo/neogeo.cpp|0||||neogeo|||neogeo/SNK
knights|Knights of the Round (911127 etc)|parent|capcom/cps1.cpp|0|||||||Capcom\CPS1
knightsj|Knights of the Round (911127 Japan)|clone|capcom/cps1.cpp|0|||||knights||Capcom\CPS1
knightsu|Knights of the Round (911127 USA)|clone|capcom/cps1.cpp|0|||||knights||Capcom\CPS1
kbash|Knuckle Bash [No sound (sound MCU not emulated)]|parent|toaplan/toaplan2.cpp|0|||||||Toaplan
lans2004|Lansquenet 2004 (bootleg) [Bootleg, bootleg of Shock Troopers - 2nd squad]|clone|neogeo/neogeo.cpp|0||||neogeo|shocktr2||neogeo
lresort|Last Resort|parent|neogeo/neogeo.cpp|0||||neogeo|||neogeo/SNK
lbowling|League Bowling|parent|neogeo/neogeo.cpp|0||||neogeo|||neogeo/SNK
legendos|Legend of Success Joe|parent|neogeo/neogeo.cpp|0||||neogeo|||neogeo/SNK
shangnle|Limited Edition Hang-On|clone|sega/segaorun.cpp|0|||||shangon||Sega
loffirej|Line of Fire / Bakudan Yarou (Japan, FD1094 317-0134)|clone|sega/segaxbd.cpp|0|||||loffire||Sega
loffireu|Line of Fire / Bakudan Yarou (US, FD1094 317-0135)|clone|sega/segaxbd.cpp|0|||||loffire||Sega
loffire|Line of Fire / Bakudan Yarou (World, FD1094 317-0136)|parent|sega/segaxbd.cpp|0|||||||Sega
lostwrld|Lost Worlds (Japan)|clone|capcom/cps1.cpp|0|||||forgottn||Capcom\CPS1
mswordj|Magic Sword (23.06.1990 Japan)|clone|capcom/cps1.cpp|0|||||msword||Capcom\CPS1
msword|Magic Sword - heroic fantasy (25.07.1990 other country)|parent|capcom/cps1.cpp|0|||||||Capcom\CPS1
mswordu|Magic Sword - heroic fantasy (25.07.1990 USA)|clone|capcom/cps1.cpp|0|||||msword||Capcom\CPS1
mswordr1|Magic Sword - heroic fantasy (90.06.23 other country)|clone|capcom/cps1.cpp|0|||||msword||Capcom\CPS1
magdrop2|Magical Drop II|parent|neogeo/neogeo.cpp|0||||neogeo|||Data East/neogeo
magdrop3|Magical Drop III|parent|neogeo/neogeo.cpp|0||||neogeo|||Data East/neogeo
maglord|Magician Lord (set 1)|parent|neogeo/neogeo.cpp|0||||neogeo|||Alpha Denshi/neogeo
maglordh|Magician Lord (set 2)|clone|neogeo/neogeo.cpp|0||||neogeo|maglord||Alpha Denshi/neogeo
mahretsu|Mahjong Kyoretsuden - real mah-jong game|parent|neogeo/neogeo.cpp|0||||neogeo|||neogeo/SNK
mahoudai|Mahou Daisakusen (Japan)|parent|toaplan/toaplan2.cpp|270|||||||Raizing
mjleague|Major League [Incomplete Sound]|parent|sega/segas16a.cpp|270|||||||Sega\System16
mmatrixj|Mars Matrix (000412 Japan)|clone|capcom/cps2.cpp|0|||||mmatrix||Capcom\CPS2/Takumi
mmatrix|Mars Matrix (000412 USA)|parent|capcom/cps2.cpp|0|||||||Capcom\CPS2/Takumi
msha|Marvel Super Heroes (951024 Asia)|clone|capcom/cps2.cpp|0|||||msh||Capcom\CPS2
msh|Marvel Super Heroes (951024 Euro)|parent|capcom/cps2.cpp|0|||||||Capcom\CPS2
mshjr1|Marvel Super Heroes (951024 Japan)|clone|capcom/cps2.cpp|0|||||msh||Capcom\CPS2
mshu|Marvel Super Heroes (951024 USA)|clone|capcom/cps2.cpp|0|||||msh||Capcom\CPS2
mshb|Marvel Super Heroes (951117 Brazil)|clone|capcom/cps2.cpp|0|||||msh||Capcom\CPS2
mshh|Marvel Super Heroes (951117 Hispanic)|clone|capcom/cps2.cpp|0|||||msh||Capcom\CPS2
mshj|Marvel Super Heroes (951117 Japan)|clone|capcom/cps2.cpp|0|||||msh||Capcom\CPS2
mshvsfa1|Marvel Super Heroes vs Street Fighter (970620 Asia)|clone|capcom/cps2.cpp|0|||||mshvsf||Capcom\CPS2
mshvsfa|Marvel Super Heroes vs Street Fighter (970625 Asia)|clone|capcom/cps2.cpp|0|||||mshvsf||Capcom\CPS2
mshvsfb1|Marvel Super Heroes vs Street Fighter (970625 Brazil)|clone|capcom/cps2.cpp|0|||||mshvsf||Capcom\CPS2
mshvsf|Marvel Super Heroes vs Street Fighter (970625 Euro)|parent|capcom/cps2.cpp|0|||||||Capcom\CPS2
mshvsfh|Marvel Super Heroes vs Street Fighter (970625 Hispanic)|clone|capcom/cps2.cpp|0|||||mshvsf||Capcom\CPS2
mshvsfj2|Marvel Super Heroes vs Street Fighter (970625 Japan)|clone|capcom/cps2.cpp|0|||||mshvsf||Capcom\CPS2
mshvsfu1|Marvel Super Heroes vs Street Fighter (970625 USA)|clone|capcom/cps2.cpp|0|||||mshvsf||Capcom\CPS2
mshvsfj1|Marvel Super Heroes vs Street Fighter (970702 Japan)|clone|capcom/cps2.cpp|0|||||mshvsf||Capcom\CPS2
mshvsfj|Marvel Super Heroes vs Street Fighter (970707 Japan)|clone|capcom/cps2.cpp|0|||||mshvsf||Capcom\CPS2
mshvsfb|Marvel Super Heroes vs Street Fighter (970827 Brazil)|clone|capcom/cps2.cpp|0|||||mshvsf||Capcom\CPS2
mshvsfu|Marvel Super Heroes vs Street Fighter (970827 USA)|clone|capcom/cps2.cpp|0|||||mshvsf||Capcom\CPS2
mvscar1|Marvel vs Capcom - clash of super heroes (980112 Asia)|clone|capcom/cps2.cpp|0|||||mvsc||Capcom\CPS2
mvsc|Marvel vs Capcom - clash of super heroes (980112 Euro)|parent|capcom/cps2.cpp|0|||||||Capcom\CPS2
mvscjr1|Marvel vs Capcom - clash of super heroes (980112 Japan)|clone|capcom/cps2.cpp|0|||||mvsc||Capcom\CPS2
mvsca|Marvel vs Capcom - clash of super heroes (980123 Asia)|clone|capcom/cps2.cpp|0|||||mvsc||Capcom\CPS2
mvscb|Marvel vs Capcom - clash of super heroes (980123 Brazil)|clone|capcom/cps2.cpp|0|||||mvsc||Capcom\CPS2
mvsch|Marvel vs Capcom - clash of super heroes (980123 Hispanic)|clone|capcom/cps2.cpp|0|||||mvsc||Capcom\CPS2
mvscj|Marvel vs Capcom - clash of super heroes (980123 Japan)|clone|capcom/cps2.cpp|0|||||mvsc||Capcom\CPS2
mvscu|Marvel vs Capcom - clash of super heroes (980123 USA)|clone|capcom/cps2.cpp|0|||||mvsc||Capcom\CPS2
megaman|Mega Man - the power battle (951006 Asia)|parent|capcom/cps1.cpp|0|||||||Capcom\CPS1
megamn2a|Mega Man 2 - the power fighters (960708 Asia)|clone|capcom/cps2.cpp|0|||||megaman2||Capcom\CPS2
megaman2|Mega Man 2 - the power fighters (960708 USA)|parent|capcom/cps2.cpp|0|||||||Capcom\CPS2
mtwins|Mega Twins (chiki chiki boys 900619 etc)|parent|capcom/cps1.cpp|0|||||||Capcom\CPS1
mercs|Mercs (900302 etc)|parent|capcom/cps1.cpp|270|||||||Capcom\CPS1
mercsu|Mercs (900302 USA)|clone|capcom/cps1.cpp|270|||||mercs||Capcom\CPS1
mercsua|Mercs (900608 USA)|clone|capcom/cps1.cpp|270|||||mercs||Capcom\CPS1
mslug|Metal Slug - super vehicle-001|parent|neogeo/neogeo.cpp|0||||neogeo|||Nazca/neogeo
mslug2|Metal Slug 2 - super vehicle-001/II|parent|neogeo/neogeo.cpp|0||||neogeo|||neogeo/SNK
mslug3|Metal Slug 3|parent|neogeo/neogeo.cpp|0||||neogeo|||neogeo/SNK
mslug3n|Metal Slug 3 (not encrypted)|clone|neogeo/neogeo.cpp|0||||neogeo|mslug3||neogeo/SNK
mslug4|Metal Slug 4|parent|neogeo/neogeo.cpp|0||||neogeo|||Mega Enterprise/neogeo/Playmore
ms4plus|Metal Slug 4 Plus (bootleg) [Bootleg, bootleg of Metal Slug 4]|clone|neogeo/neogeo.cpp|0||||neogeo|mslug4||neogeo
mslug5|Metal Slug 5|parent|neogeo/neogeo.cpp|0||||neogeo|||neogeo/SNK
ms5pcb|Metal Slug 5 (JAMMA PCB)|parent|neogeo/neopcb.cpp|0|||||||SNK
ms5plus|Metal Slug 5 Plus (bootleg) [Bootleg, bootleg of Metal Slug 5]|clone|neogeo/neogeo.cpp|0||||neogeo|mslug5||neogeo
mslug3b6|Metal Slug 6 [Bootleg, bootleg of Metal Slug 3]|clone|neogeo/neogeo.cpp|0||||neogeo|mslug3||neogeo
mslugx|Metal Slug X - super vehicle-001|parent|neogeo/neogeo.cpp|0||||neogeo|||neogeo/SNK
mpang|Mighty! Pang (001010 USA)|parent|capcom/cps2.cpp|0|||||||Mitchell
mpangj|Mighty! Pang (001011 Japan)|clone|capcom/cps2.cpp|0|||||mpang||Mitchell
minasan|Minnasanno Okagesamadesu|parent|neogeo/neogeo.cpp|0||||neogeo|||Monolith/neogeo
miexchng|Money Puzzle Exchanger|parent|neogeo/neogeo.cpp|0||||neogeo|||Face/neogeo
moremore|More More|parent|kaneko/snowbros.cpp|0|||||||Exit/SemiCom
moremorp|More More Plus|parent|kaneko/snowbros.cpp|0|||||||Exit/SemiCom
mbomberj|Muscle Bomber - the body explosion (930713 Japan)|clone|capcom/cps1.cpp|0|||||slammast||Capcom\CPS1
mbombrdj|Muscle Bomber Duo - heat up warriors (931206 Japan)|clone|capcom/cps1.cpp|0|||||slammast||Capcom\CPS1
mbombrd|Muscle Bomber Duo - ultimate team battle (931206 etc)|clone|capcom/cps1.cpp|0|||||slammast||Capcom\CPS1
mutnat|Mutation Nation|parent|neogeo/neogeo.cpp|0||||neogeo|||neogeo/SNK
mvpj|MVP (set 1, Japan, FD1094 317-0142) [Incomplete Sound]|clone|sega/segas16b.cpp|0|||||mvp||Sega\System16
mvp|MVP (set 2, US, FD1094 317-0143) [Incomplete Sound]|parent|sega/segas16b.cpp|0|||||||Sega\System16
nam1975|NAM - 1975|parent|neogeo/neogeo.cpp|0||||neogeo|||neogeo/SNK
nemoj|Nemo (90 11 20 Japan)|clone|capcom/cps1.cpp|0|||||nemo||Capcom\CPS1
nemo|Nemo (90 11 30 etc)|parent|capcom/cps1.cpp|0|||||||Capcom\CPS1
neobombe|Neo Bomberman|parent|neogeo/neogeo.cpp|0||||neogeo|||Hudson Soft/neogeo
neodrift|Neo Drift Out - new technology|parent|neogeo/neogeo.cpp|0||||neogeo|||neogeo/Visco
neomrdo|Neo Mr. Do!|parent|neogeo/neogeo.cpp|0||||neogeo|||neogeo/Visco
turfmast|Neo Turf Masters|parent|neogeo/neogeo.cpp|0||||neogeo|||Nazca/neogeo
neocup98|Neo-Geo Cup '98 - the road to the victory|parent|neogeo/neogeo.cpp|0||||neogeo|||neogeo/SNK
news|News (set 1)|parent|misc/news.cpp|0|||||||Poby/Virus
newsa|News (set 2)|clone|misc/news.cpp|0|||||news||Poby/Virus
nwarrb|Night Warriors - darkstalkers' revenge (950403 Brazil)|clone|capcom/cps2.cpp|0|||||nwarr||Capcom\CPS2
nwarrh|Night Warriors - darkstalkers' revenge (950403 Hispanic)|clone|capcom/cps2.cpp|0|||||nwarr||Capcom\CPS2
nwarr|Night Warriors - darkstalkers' revenge (950406 USA)|parent|capcom/cps2.cpp|0|||||||Capcom\CPS2
nitd|Nightmare in the Dark|parent|neogeo/neogeo.cpp|0||||neogeo|||Eleven/Gavaking/neogeo
ncombat|Ninja Combat (set 1)|parent|neogeo/neogeo.cpp|0||||neogeo|||Alpha Denshi/neogeo
ncombata|Ninja Combat (set 2)|clone|neogeo/neogeo.cpp|0||||neogeo|ncombat||Alpha Denshi/neogeo
ncommand|Ninja Commando|parent|neogeo/neogeo.cpp|0||||neogeo|||Alpha Denshi/neogeo
ninjamas|Ninja Master's haoh ninpo cho|parent|neogeo/neogeo.cpp|0||||neogeo|||ADK/neogeo/SNK
ohmygod|Oh My God!|parent|atlus/ohmygod.cpp|0|||||||Atlus
opwolfb|Operation Bear (bootleg) [Bootleg]|clone|taito/opwolf.cpp|0|||||opwolf||Bear
ragnagrd|Operation Ragnagard|parent|neogeo/neogeo.cpp|0||||neogeo|||neogeo/Saurus
outrunb|Out Run (bootleg) [Bootleg]|clone|sega/segaorun.cpp|0|||||outrun||
outrun1|Out Run (deluxe sitdown)|clone|sega/segaorun.cpp|0|||||outrun||Sega
outrun2|Out Run (sitdown/upright, Rev A)|clone|sega/segaorun.cpp|0|||||outrun||Sega
outrun|Out Run (sitdown/upright, Rev B)|parent|sega/segaorun.cpp|0|||||||Sega
outzone|Out Zone (set 1)|parent|toaplan/toaplan1.cpp|270|||||||Toaplan
outzonea|Out Zone (set 2)|clone|toaplan/toaplan1.cpp|270|||||outzone||Toaplan
outzoneb|Out Zone (set 3, prototype?)|clone|toaplan/toaplan1.cpp|270|||||outzone||Toaplan
outzonec|Out Zone (set 4)|clone|toaplan/toaplan1.cpp|270|||||outzone||Toaplan
overtop|OverTop|parent|neogeo/neogeo.cpp|0||||neogeo|||ADK/neogeo
pang3|Pang! 3 (950511 Euro)|parent|capcom/cps1.cpp|0|||||||Mitchell
pang3j|Pang! 3 (950511 Japan)|clone|capcom/cps1.cpp|0|||||pang3||Mitchell
panicbom|Panic Bomber|parent|neogeo/neogeo.cpp|0||||neogeo|||Hudson Soft/neogeo
passshtj|Passing Shot (Japan, 4 Players, FD1094 317-0070) [Incomplete Sound]|clone|sega/segas16b.cpp|270|||||passsht||Sega\System16
passsht|Passing Shot (World, 2 Players, FD1094 317-0080) [Incomplete Sound]|parent|sega/segas16b.cpp|270|||||||Sega\System16
passshta|Passing Shot (World, 4 Players, FD1094 317-0074) [Incomplete Sound]|clone|sega/segas16b.cpp|270|||||passsht||Sega\System16
pgoal|Pleasure Goal - 5 on 5 mini soccer|parent|neogeo/neogeo.cpp|0||||neogeo|||neogeo/Saurus
pnickj|Pnickies (940608 Japan)|parent|capcom/cps1.cpp|0|||||||Capcom\CPS1/Compile
pnyaa|Pochi and Nyaa|parent|neogeo/neogeo.cpp|0||||neogeo|||Aiky/neogeo/Taito
pfghtj|Pocket Fighter (970904 Japan)|clone|capcom/cps2.cpp|0|||||sgemf||Capcom\CPS2
popbounc|Pop 'n Bounce|parent|neogeo/neogeo.cpp|0||||neogeo|||neogeo/Video System
pdriftj|Power Drift (Japan)|clone|sega/segaybd.cpp|0|||||pdrift||Sega
pdrifta|Power Drift (World)|clone|sega/segaybd.cpp|0|||||pdrift||Sega
pdrifte|Power Drift (World, Earlier)|clone|sega/segaybd.cpp|0|||||pdrift||Sega
pdrift|Power Drift (World, Rev A)|parent|sega/segaybd.cpp|0|||||||Sega
pspikes2|Power Spikes II|parent|neogeo/neogeo.cpp|0||||neogeo|||neogeo/Video System
pgearr1|Powered Gear - strategic variant armor equipment (940916 Japan)|clone|capcom/cps2.cpp|0|||||armwar||Capcom\CPS2
pgear|Powered Gear - strategic variant armor equipment (941024 Japan)|clone|capcom/cps2.cpp|0|||||armwar||Capcom\CPS2
preisle2|Prehistoric Isle 2|parent|neogeo/neogeo.cpp|0||||neogeo|||neogeo/Saurus/Yumekobo
prehislu|Prehistoric Isle in 1930 (US) [Incomplete Sound]|clone|snk/prehisle.cpp|0|||||prehisle||SNK
prehisle|Prehistoric Isle in 1930 (World) [Incomplete Sound]|parent|snk/prehisle.cpp|0|||||||SNK
sailormo|Pretty Soldier Sailor Moon (version 95/03/22)|clone|misc/cave.cpp|0|||||sailormn||BanPresto/Gazelle
sailormn|Pretty Soldier Sailor Moon (version 95/03/22B)|parent|misc/cave.cpp|0|||||||BanPresto/Gazelle
progeara|Progear (010117 Asia)|clone|capcom/cps2.cpp|0|||||progear||Capcom\CPS2/Cave
progear|Progear (010117 USA)|parent|capcom/cps2.cpp|0|||||||Capcom\CPS2/Cave
progearj|Progear No Arashi (010117 Japan)|clone|capcom/cps2.cpp|0|||||progear||Capcom\CPS2/Cave
pulstar|Pulstar|parent|neogeo/neogeo.cpp|0||||neogeo|||Aicom/neogeo
pzloop2j|Puzz Loop 2 (010205 Japan)|clone|capcom/cps2.cpp|0|||||pzloop2||Mitchell/Capcom
pzloop2|Puzz Loop 2 (010302 Euro)|parent|capcom/cps2.cpp|0|||||||Mitchell/Capcom
pbobblen|Puzzle Bobble (set 1)|parent|neogeo/neogeo.cpp|0||||neogeo|||neogeo/Taito
pbobblna|Puzzle Bobble (set 2)|clone|neogeo/neogeo.cpp|0||||neogeo|pbobblen||neogeo/Taito
pbobbl2n|Puzzle Bobble 2|parent|neogeo/neogeo.cpp|0||||neogeo|||neogeo/Taito
puzzledp|Puzzle De Pon|parent|neogeo/neogeo.cpp|0||||neogeo|||neogeo/Taito/Visco
puzzldpr|Puzzle De Pon R|clone|neogeo/neogeo.cpp|0||||neogeo|puzzledp||neogeo/Taito/Visco
4in1boot|Puzzle King [Bootleg]|parent|kaneko/snowbros.cpp|0|||||||K1 Soft
uopoko|Puzzle Uo Poko (International)|parent|misc/cave.cpp|0|||||||Cave/Jaleco
joyjoy|Puzzled|parent|neogeo/neogeo.cpp|0||||neogeo|||neogeo/SNK
quartet1|Quartet (8751 315-5194) [Incomplete Sound]|clone|sega/segas16a.cpp|0|||||quartet||Sega\System16
quartet|Quartet (Rev A, 8751 317-unknown) [Incomplete Sound]|parent|sega/segas16a.cpp|0|||||||Sega\System16
quart21|Quartet 2 (8751 317-0010) [Incomplete Sound]|clone|sega/segas16a.cpp|0|||||quartet||Sega\System16
quart2|Quartet 2 (unprotected) [Incomplete Sound]|clone|sega/segas16a.cpp|0|||||quartet||Sega\System16
qadj|Quiz & Dragons (940921 Japan)|clone|capcom/cps1.cpp|0|||||qad||Capcom\CPS1
qad|Quiz & Dragons (capcom quiz game 920701 USA)|parent|capcom/cps1.cpp|0|||||||Capcom\CPS1
quizdais|Quiz Daisousa Sen - the last count down|parent|neogeo/neogeo.cpp|0||||neogeo|||neogeo/SNK
quizkof|Quiz King of Fighters|parent|neogeo/neogeo.cpp|0||||neogeo|||neogeo/Saurus
quizdai2|Quiz Meintantei Neo Geo - quiz daisousa sen part 2|parent|neogeo/neogeo.cpp|0||||neogeo|||neogeo/SNK
qndream|Quiz Nanairo Dreams - nijiirochou no kiseki (nanairo dreams 960826 Japan)|parent|capcom/cps2.cpp|0|||||||Capcom\CPS2
qtono2|Quiz Tonosama no Yabou 2 Zenkoku-ban (tonosama 2 950123 Japan)|parent|capcom/cps1.cpp|0|||||||Capcom\CPS1
rachero|Racing Hero (FD1094 317-0144)|parent|sega/segaxbd.cpp|0|||||||Sega
rotd|Rage of the Dragons|parent|neogeo/neogeo.cpp|0||||neogeo|||Evoga/neogeo/Playmore
rchase|Rail Chase (Japan)|parent|sega/segaybd.cpp|0|||||||Sega
rainbowe|Rainbow Islands (Extra)|clone|dec/rainbow.cpp|0|||||rainbow||Taito
rainbow|Rainbow Islands (new version)|parent|dec/rainbow.cpp|0|||||||Taito
rainbowo|Rainbow Islands (old version)|clone|dec/rainbow.cpp|0|||||rainbow||Taito
rastanu|Rastan (US set 1)|clone|taito/rastan.cpp|0|||||rastan||Taito
rastanu2|Rastan (US set 2)|clone|taito/rastan.cpp|0|||||rastan||Taito
rastan|Rastan (World)|parent|taito/rastan.cpp|0|||||||Taito
rastsag1|Rastan Saga (Japan rev 1)|clone|taito/rastan.cpp|0|||||rastan||Taito
rastsaga|Rastan Saga (Japan)|clone|taito/rastan.cpp|0|||||rastan||Taito
rbff2k|Real Bout Fatal Fury 2 - the newcomers (Korean Release)|clone|neogeo/neogeo.cpp|0||||neogeo|rbff2||neogeo/SNK
rbff2|Real Bout Fatal Fury 2 - the newcomers (set 1)|parent|neogeo/neogeo.cpp|0||||neogeo|||neogeo/SNK
rbff2h|Real Bout Fatal Fury 2 - the newcomers (set 2)|clone|neogeo/neogeo.cpp|0||||neogeo|rbff2||neogeo/SNK
rbffspec|Real Bout Fatal Fury Special|parent|neogeo/neogeo.cpp|0||||neogeo|||neogeo/SNK
rbff1|Real Bout Fatal Fury|parent|neogeo/neogeo.cpp|0||||neogeo|||neogeo/SNK
ridhero|Riding Hero (set 1)|parent|neogeo/neogeo.cpp|0||||neogeo|||neogeo/SNK
ridheroh|Riding Hero (set 2)|clone|neogeo/neogeo.cpp|0||||neogeo|ridhero||neogeo/SNK
ringdest|Ring of Destruction - slammasters II (940902 Euro)|parent|capcom/cps2.cpp|0|||||||Capcom\CPS2
riotcity|Riot City (Japan) [Incomplete Sound]|parent|sega/segas16b.cpp|0|||||||Sega\System16/Westone
roboarmy|Robo Army (set 1)|parent|neogeo/neogeo.cpp|0||||neogeo|||neogeo/SNK
roboarma|Robo Army (set 2)|clone|neogeo/neogeo.cpp|0||||neogeo|roboarmy||neogeo/SNK
rockmanj|Rockman - the power battle (950922 Japan)|clone|capcom/cps1.cpp|0|||||megaman||Capcom\CPS1
rckman2j|Rockman 2 - the power fighters (960708 Japan)|clone|capcom/cps2.cpp|0|||||megaman2||Capcom\CPS2
ryukyu|RyuKyu (Japan, FD1094 317-5023) [Incomplete Sound]|parent|sega/segas16b.cpp|0|||||||Sega\System16/Success
samuraia|Samurai Aces (World)|parent|psikyo/psikyo.cpp|270|||||||BanPresto/Psikyo
samsho2|Samurai Shodown II|parent|neogeo/neogeo.cpp|0||||neogeo|||neogeo/SNK
samsho3|Samurai Shodown III (set 1)|parent|neogeo/neogeo.cpp|0||||neogeo|||neogeo/SNK
samsho3a|Samurai Shodown III (set 2)|clone|neogeo/neogeo.cpp|0||||neogeo|samsho3||neogeo/SNK
samsho4|Samurai Shodown IV - Amakusa's revenge|parent|neogeo/neogeo.cpp|0||||neogeo|||neogeo/SNK
samsho5b|Samurai Shodown V (bootleg) [Bootleg]|clone|neogeo/neogeo.cpp|0||||neogeo|samsho5||neogeo
samsho5|Samurai Shodown V (set 1)|parent|neogeo/neogeo.cpp|0||||neogeo|||neogeo/SNK/Yuki Enterprise
samsho5h|Samurai Shodown V (set 2)|clone|neogeo/neogeo.cpp|0||||neogeo|samsho5||neogeo/SNK/Yuki Enterprise
samsh5sp|Samurai Shodown V Special (set 1, uncensored)|parent|neogeo/neogeo.cpp|0||||neogeo|||neogeo/SNK/Yuki Enterprise
samsh5sh|Samurai Shodown V Special (set 2, censored)|clone|neogeo/neogeo.cpp|0||||neogeo|samsh5sp||neogeo/SNK/Yuki Enterprise
samsh5sn|Samurai Shodown V Special (set 3, less censored)|clone|neogeo/neogeo.cpp|0||||neogeo|samsh5sp||neogeo/SNK/Yuki Enterprise
samsho|Samurai Shodown|parent|neogeo/neogeo.cpp|0||||neogeo|||neogeo/SNK
wofa|Sangokushi II (921005 Asia)|clone|capcom/cps1.cpp|0|||||wof||Capcom\CPS1
slammast|Saturday Night Slam Masters (Slam Masters 930713 etc)|parent|capcom/cps1.cpp|0|||||||Capcom\CPS1
slammasu|Saturday Night Slam Masters (slam masters 930713 USA)|clone|capcom/cps1.cpp|0|||||slammast||Capcom\CPS1
savagere|Savage Reign|parent|neogeo/neogeo.cpp|0||||neogeo|||neogeo/SNK
sdibl|SDI - Strategic Defense Initiative (bootleg)|clone|sega/segas16b.cpp|0|||||sdi||Sega\System16
sdi|SDI - Strategic Defense Initiative (Europe, System 16A, FD1089B 317-0027)|parent|sega/segas16a.cpp|0|||||||Sega\System16
sdib|SDI - Strategic Defense Initiative (System 16B, FD1089A 317-0028)|clone|sega/segas16b.cpp|0|||||sdi||Sega\System16
sengoku|Sengoku (set 1)|parent|neogeo/neogeo.cpp|0||||neogeo|||neogeo/SNK
sengokh|Sengoku (set 2)|clone|neogeo/neogeo.cpp|0||||neogeo|sengoku||neogeo/SNK
sengoku2|Sengoku 2|parent|neogeo/neogeo.cpp|0||||neogeo|||neogeo/SNK
sengoku3|Sengoku 3|parent|neogeo/neogeo.cpp|0||||neogeo|||neogeo/SNK
sngkace|Sengoku Ace (Japan)|clone|psikyo/psikyo.cpp|270|||||samuraia||BanPresto/Psikyo
mercsj|Senjo no Ookami II (Ookami 2 900302 Japan)|clone|capcom/cps1.cpp|270|||||mercs||Capcom\CPS1
matrim|Shin gouketsuzi ichizoku - Toukon|parent|neogeo/neogeo.cpp|0||||neogeo|||Atlus/neogeo/Noise Factory/Playmore
shinobi1|Shinobi (set 1, System 16A, FD1094 317-0050) [Incomplete Sound]|clone|sega/segas16a.cpp|0|||||shinobi||Sega\System16
shinobi2|Shinobi (set 2, System 16B, FD1094 317-0049) [Incomplete Sound]|clone|sega/segas16b.cpp|0|||||shinobi||Sega\System16
shinobi3|Shinobi (set 3, System 16B, MC-8123B 317-0054) [No Sound]|clone|sega/segas16b.cpp|0|||||shinobi||Sega\System16
shinobi4|Shinobi (set 4, System 16B, unprotected) [Incomplete Sound]|clone|sega/segas16b.cpp|0|||||shinobi||Sega\System16
shinobi|Shinobi (set 5, System 16A, unprotected) [Incomplete Sound]|parent|sega/segas16a.cpp|0|||||||Sega\System16
shippumd|Shippu Mahou Daisakusen - kingdom grandprix (Japan)|parent|toaplan/toaplan2.cpp|270|||||||Eighting/Raizing
shocktro|Shock Troopers (set 1)|parent|neogeo/neogeo.cpp|0||||neogeo|||neogeo/Saurus
shocktra|Shock Troopers (set 2)|clone|neogeo/neogeo.cpp|0||||neogeo|shocktro||neogeo/Saurus
shocktr2|Shock Troopers - 2nd squad|parent|neogeo/neogeo.cpp|0||||neogeo|||neogeo/Saurus
slapfgtr|Slap Fight (bootleg) [Bootleg]|clone|toaplan/slapfght.cpp|270|||||slapfigh||Taito
slapbtuk|Slap Fight (English bootleg) [Bootleg]|clone|toaplan/slapfght.cpp|270|||||slapfigh||Taito
slapbtjp|Slap Fight (Japan bootleg) [Bootleg]|clone|toaplan/slapfght.cpp|270|||||slapfigh||Taito
slapfigh|Slap Fight (set 1) [Protection MCU not emulated]|parent|toaplan/slapfght.cpp|270|||||||Taito
snowbroj|Snow Bros. - Nick & Tom (Japan)|clone|kaneko/snowbros.cpp|0|||||snowbros||Toaplan
snowbros|Snow Bros. - Nick & Tom (set 1)|parent|kaneko/snowbros.cpp|0|||||||Toaplan
snowbroa|Snow Bros. - Nick & Tom (set 2)|clone|kaneko/snowbros.cpp|0|||||snowbros||Toaplan
snowbrob|Snow Bros. - Nick & Tom (set 3)|clone|kaneko/snowbros.cpp|0|||||snowbros||Toaplan
snowbroc|Snow Bros. - Nick & Tom (set 4)|clone|kaneko/snowbros.cpp|0|||||snowbros||Toaplan
snowbro2|Snow Bros. 2 - with new elves|parent|toaplan/toaplan2.cpp|0|||||||Hanafram/Toaplan
socbrawl|Soccer Brawl|parent|neogeo/neogeo.cpp|0||||neogeo|||neogeo/SNK
solomonj|Solomon's Key (Japan)|clone|tecmo/solomon.cpp|0|||||solomon||Tecmo
solomon|Solomon's Key (US)|parent|tecmo/solomon.cpp|0|||||||Tecmo
sonicbom|Sonic Boom (FD1094 317-0053) [Incomplete Sound]|parent|sega/segas16b.cpp|270|||||||Sega\System16
sstriker|Sorcer Striker (World)|clone|toaplan/toaplan2.cpp|270|||||mahoudai||Raizing
sstrikra|Sorcer Striker (World, alt)|clone|toaplan/toaplan2.cpp|270|||||mahoudai||Raizing
sharrir1|Space Harrier (8751 315-5163)|clone|sega/segahang.cpp|0|||||sharrier||Sega
sharrier|Space Harrier (Rev A, 8751 315-5163A)|parent|sega/segahang.cpp|0|||||||Sega
spinmast|Spin Master|parent|neogeo/neogeo.cpp|0||||neogeo|||Data East/neogeo
stakwin|Stakes Winner|parent|neogeo/neogeo.cpp|0||||neogeo|||neogeo/Saurus
stakwin2|Stakes Winner 2|parent|neogeo/neogeo.cpp|0||||neogeo|||neogeo/Saurus
sfach|Street Fighter Alpha (950727 CPS Changer)|clone|capcom/cps1.cpp|0|||||sfzch||Capcom\CPS1
sfar3|Street Fighter Alpha - warriors' dreams (950605 Euro)|clone|capcom/cps2.cpp|0|||||sfa||Capcom\CPS2
sfar2|Street Fighter Alpha - warriors' dreams (950627 Euro)|clone|capcom/cps2.cpp|0|||||sfa||Capcom\CPS2
sfau|Street Fighter Alpha - warriors' dreams (950627 USA)|clone|capcom/cps2.cpp|0|||||sfa||Capcom\CPS2
sfar1|Street Fighter Alpha - warriors' dreams (950718 Euro)|clone|capcom/cps2.cpp|0|||||sfa||Capcom\CPS2
sfa|Street Fighter Alpha - warriors' dreams (950727 Euro)|parent|capcom/cps2.cpp|0|||||||Capcom\CPS2
sfa2|Street Fighter Alpha 2 (960306 USA)|parent|capcom/cps2.cpp|0|||||||Capcom\CPS2
sfa3b|Street Fighter Alpha 3 (980629 Brazil)|clone|capcom/cps2.cpp|0|||||sfa3||Capcom\CPS2
sfa3r1|Street Fighter Alpha 3 (980629 USA)|clone|capcom/cps2.cpp|0|||||sfa3||Capcom\CPS2
sfa3|Street Fighter Alpha 3 (980904 USA)|parent|capcom/cps2.cpp|0|||||||Capcom\CPS2
sf2ua|Street Fighter II - the world warrior (910206 USA)|clone|capcom/cps1.cpp|0|||||sf2||Capcom\CPS1
sf2eb|Street Fighter II - the world warrior (910214 etc)|clone|capcom/cps1.cpp|0|||||sf2||Capcom\CPS1
sf2ja|Street Fighter II - the world warrior (910214 Japan)|clone|capcom/cps1.cpp|0|||||sf2||Capcom\CPS1
sf2ub|Street Fighter II - the world warrior (910214 USA)|clone|capcom/cps1.cpp|0|||||sf2||Capcom\CPS1
sf2ue|Street Fighter II - the world warrior (910228 USA)|clone|capcom/cps1.cpp|0|||||sf2||Capcom\CPS1
sf2jc|Street Fighter II - the world warrior (910306 Japan)|clone|capcom/cps1.cpp|0|||||sf2||Capcom\CPS1
sf2ud|Street Fighter II - the world warrior (910318 USA)|clone|capcom/cps1.cpp|0|||||sf2||Capcom\CPS1
sf2uf|Street Fighter II - the world warrior (910411 USA)|clone|capcom/cps1.cpp|0|||||sf2||Capcom\CPS1
sf2|Street Fighter II - the world warrior (910522 etc)|parent|capcom/cps1.cpp|0|||||||Capcom\CPS1
sf2ui|Street Fighter II - the world warrior (910522 USA)|clone|capcom/cps1.cpp|0|||||sf2||Capcom\CPS1
sf2uk|Street Fighter II - the world warrior (911101 USA)|clone|capcom/cps1.cpp|0|||||sf2||Capcom\CPS1
sf2j|Street Fighter II - the world warrior (911210 Japan)|clone|capcom/cps1.cpp|0|||||sf2||Capcom\CPS1
sf2accp2|Street Fighter II' - champion edition (Hack - Accelerator Pt.II) [Bootleg]|clone|capcom/cps1.cpp|0|||||sf2ce||Capcom\CPS1
sf2koryu|Street Fighter II' - champion edition (Hack - kouryu) [Bootleg]|clone|capcom/cps1.cpp|0|||||sf2ce||Capcom\CPS1
sf2m2|Street Fighter II' - champion edition (Hack - M-2) [Bootleg]|clone|capcom/cps1.cpp|0|||||sf2ce||Capcom\CPS1
sf2m4|Street Fighter II' - champion edition (Hack - M-4) [Bootleg]|clone|capcom/cps1.cpp|0|||||sf2ce||Capcom\CPS1
sf2m5|Street Fighter II' - champion edition (Hack - M-5) [Bootleg]|clone|capcom/cps1.cpp|0|||||sf2ce||Capcom\CPS1
sf2m6|Street Fighter II' - champion edition (Hack - M-6) [Bootleg]|clone|capcom/cps1.cpp|0|||||sf2ce||Capcom\CPS1
sf2m7|Street Fighter II' - champion edition (Hack - M-7) [Bootleg]|clone|capcom/cps1.cpp|0|||||sf2ce||Capcom\CPS1
sf2rb|Street Fighter II' - champion edition (Hack - Rainbow set 1) [Bootleg]|clone|capcom/cps1.cpp|0|||||sf2ce||Capcom\CPS1
sf2rb2|Street Fighter II' - champion edition (Hack - Rainbow set 2) [Bootleg]|clone|capcom/cps1.cpp|0|||||sf2ce||Capcom\CPS1
sf2red|Street Fighter II' - champion edition (Hack - Red Wave) [Bootleg]|clone|capcom/cps1.cpp|0|||||sf2ce||Capcom\CPS1
sf2v004|Street Fighter II' - champion edition (Hack - V004) [Bootleg]|clone|capcom/cps1.cpp|0|||||sf2ce||Capcom\CPS1
sf2yyc|Street Fighter II' - champion edition (Hack - YYC) [Bootleg]|clone|capcom/cps1.cpp|0|||||sf2ce||Capcom\CPS1
sf2ce|Street Fighter II' - champion edition (street fighter 2' 920313 etc)|parent|capcom/cps1.cpp|0|||||||Capcom\CPS1
sf2ceua|Street Fighter II' - champion edition (street fighter 2' 920313 USA)|clone|capcom/cps1.cpp|0|||||sf2ce||Capcom\CPS1
sf2cej|Street Fighter II' - champion edition (street fighter 2' 920513 Japan)|clone|capcom/cps1.cpp|0|||||sf2ce||Capcom\CPS1
sf2ceub|Street Fighter II' - champion edition (street fighter 2' 920513 USA)|clone|capcom/cps1.cpp|0|||||sf2ce||Capcom\CPS1
sf2ceuc|Street Fighter II' - champion edition (street fighter 2' 920803 USA)|clone|capcom/cps1.cpp|0|||||sf2ce||Capcom\CPS1
sf2hf|Street Fighter II' - hyper fighting (street fighter 2' T 921209 ETC)|clone|capcom/cps1.cpp|0|||||sf2ce||Capcom\CPS1
sf2t|Street Fighter II' - hyper fighting (street fighter 2' T 921209 USA)|clone|capcom/cps1.cpp|0|||||sf2ce||Capcom\CPS1
sf2tj|Street Fighter II' Turbo - hyper fighting (street fighter 2' T 921209 Japan)|clone|capcom/cps1.cpp|0|||||sf2ce||Capcom\CPS1
sfzjr2|Street Fighter Zero (950605 Japan)|clone|capcom/cps2.cpp|0|||||sfa||Capcom\CPS2
sfza|Street Fighter Zero (950627 Asia)|clone|capcom/cps2.cpp|0|||||sfa||Capcom\CPS2
sfzh|Street Fighter Zero (950627 Hispanic)|clone|capcom/cps2.cpp|0|||||sfa||Capcom\CPS2
sfzjr1|Street Fighter Zero (950627 Japan)|clone|capcom/cps2.cpp|0|||||sfa||Capcom\CPS2
sfzbr1|Street Fighter Zero (950727 Brazil)|clone|capcom/cps2.cpp|0|||||sfa||Capcom\CPS2
sfzj|Street Fighter Zero (950727 Japan)|clone|capcom/cps2.cpp|0|||||sfa||Capcom\CPS2
sfzch|Street Fighter Zero (951020 CPS Changer)|parent|capcom/cps1.cpp|0|||||||Capcom\CPS1
sfzb|Street Fighter Zero (951109 Brazil)|clone|capcom/cps2.cpp|0|||||sfa||Capcom\CPS2
sfz2a|Street Fighter Zero 2 (960227 Asia)|clone|capcom/cps2.cpp|0|||||sfa2||Capcom\CPS2
sfz2j|Street Fighter Zero 2 (960227 Japan)|clone|capcom/cps2.cpp|0|||||sfa2||Capcom\CPS2
sfz2n|Street Fighter Zero 2 (960229 Oceania)|clone|capcom/cps2.cpp|0|||||sfa2||Capcom\CPS2
sfz2br1|Street Fighter Zero 2 (960304 Brazil)|clone|capcom/cps2.cpp|0|||||sfa2||Capcom\CPS2
sfz2h|Street Fighter Zero 2 (960304 Hispanic)|clone|capcom/cps2.cpp|0|||||sfa2||Capcom\CPS2
sfz2b|Street Fighter Zero 2 (960531 Brazil)|clone|capcom/cps2.cpp|0|||||sfa2||Capcom\CPS2
sfz2aj|Street Fighter Zero 2 Alpha (960805 Japan)|clone|capcom/cps2.cpp|0|||||sfa2||Capcom\CPS2
sfz2ab|Street Fighter Zero 2 Alpha (960813 Brazil)|clone|capcom/cps2.cpp|0|||||sfa2||Capcom\CPS2
sfz2ah|Street Fighter Zero 2 Alpha (960813 Hispanic)|clone|capcom/cps2.cpp|0|||||sfa2||Capcom\CPS2
sfz2aa|Street Fighter Zero 2 Alpha (960826 Asia)|clone|capcom/cps2.cpp|0|||||sfa2||Capcom\CPS2
sfz3jr2|Street Fighter Zero 3 (980629 Japan)|clone|capcom/cps2.cpp|0|||||sfa3||Capcom\CPS2
sfz3ar1|Street Fighter Zero 3 (980701 Asia)|clone|capcom/cps2.cpp|0|||||sfa3||Capcom\CPS2
sfz3jr1|Street Fighter Zero 3 (980727 Japan)|clone|capcom/cps2.cpp|0|||||sfa3||Capcom\CPS2
sfz3a|Street Fighter Zero 3 (980904 Asia)|clone|capcom/cps2.cpp|0|||||sfa3||Capcom\CPS2
sfz3j|Street Fighter Zero 3 (980904 Japan)|clone|capcom/cps2.cpp|0|||||sfa3||Capcom\CPS2
strhoop|Street Hoop|parent|neogeo/neogeo.cpp|0||||neogeo|||Data East/neogeo
strider|Strider (US set 1)|parent|capcom/cps1.cpp|0|||||||Capcom\CPS1
stridrua|Strider (US set 2)|clone|capcom/cps1.cpp|0|||||strider||Capcom\CPS1
striderj|Strider Hiryu (Japan set 1)|clone|capcom/cps1.cpp|0|||||strider||Capcom\CPS1
stridrja|Strider Hiryu (Japan set 2)|clone|capcom/cps1.cpp|0|||||strider||Capcom\CPS1
strkfgtr|Strike Fighter (Japan)|parent|sega/segaybd.cpp|0|||||||Sega
s1945|Strikers 1945|parent|psikyo/psikyo.cpp|270|||||||Psikyo
s1945a|Strikers 1945 (Alt)|clone|psikyo/psikyo.cpp|270|||||s1945||Psikyo
s1945j|Strikers 1945 (Japan)|clone|psikyo/psikyo.cpp|270|||||s1945||Psikyo
s1945jn|Strikers 1945 (Japan, unprotected)|clone|psikyo/psikyo.cpp|270|||||s1945||Psikyo
s1945k|Strikers 1945 (Korea)|clone|psikyo/psikyo.cpp|270|||||s1945||Psikyo
s1945p|Strikers 1945 plus|parent|neogeo/neogeo.cpp|0||||neogeo|||neogeo/Psikyo
sjryuko1|Sukeban Jansi Ryuko (set 1, System 16A, FD1089B 317-5021) [Incomplete Sound]|clone|sega/segas16a.cpp|0|||||sjryuko||White Board
sjryuko|Sukeban Jansi Ryuko (set 2, System 16B, FD1089B 317-5021) [Incomplete Sound]|parent|sega/segas16b.cpp|0|||||||White Board
sdodgeb|Super Dodge Ball|parent|neogeo/neogeo.cpp|0||||neogeo|||neogeo/Technos
sgemfa|Super Gem Fighter Mini Mix (970904 Asia)|clone|capcom/cps2.cpp|0|||||sgemf||Capcom\CPS2
sgemfh|Super Gem Fighter Mini Mix (970904 Hispanic)|clone|capcom/cps2.cpp|0|||||sgemf||Capcom\CPS2
sgemf|Super Gem Fighter Mini Mix (970904 USA)|parent|capcom/cps2.cpp|0|||||||Capcom\CPS2
shangon2|Super Hang-On (mini ride-on, Rev A, FD1089B 317-0034)|clone|sega/segaorun.cpp|0|||||shangon||Sega
shangon3|Super Hang-On (sitdown/upright, FD1089B 317-0034)|clone|sega/segaorun.cpp|0|||||shangon||Sega
shangon|Super Hang-On (sitdown/upright, unprotected)|parent|sega/segaorun.cpp|0|||||||Sega
smgpj|Super Monaco GP (set 1, Japan, Rev B, FD1094 317-0124a) [Imperfect Sound]|clone|sega/segaxbd.cpp|0|||||smgp||Sega
smgpu3|Super Monaco GP (set 2, US, FD1094 317-0125a) [Imperfect Sound]|clone|sega/segaxbd.cpp|0|||||smgp||Sega
smgpu2|Super Monaco GP (set 3, US, Rev A, FD1094 317-0125a) [Imperfect Sound]|clone|sega/segaxbd.cpp|0|||||smgp||Sega
smgpu1|Super Monaco GP (set 4, US, Rev B, FD1094 317-0125a) [Imperfect Sound]|clone|sega/segaxbd.cpp|0|||||smgp||Sega
smgpu|Super Monaco GP (set 5, US, Rev C, FD1094 317-0125a) [Imperfect Sound]|clone|sega/segaxbd.cpp|0|||||smgp||Sega
smgp5|Super Monaco GP (set 6, World, 'Air Drive Cabinet', FD1094 317-0126) [Imperfect Sound]|clone|sega/segaxbd.cpp|0|||||smgp||Sega
smgp6|Super Monaco GP (set 7, World, Rev A, FD1094 317-0126a) [Imperfect Sound]|clone|sega/segaxbd.cpp|0|||||smgp||Sega
smgp|Super Monaco GP (set 8, World, Rev B, 'Twin', FD1094 317-0126a) [Imperfect Sound]|parent|sega/segaxbd.cpp|0|||||||Sega
smbombr1|Super Muscle Bomber - the international blowout (940808 Japan)|clone|capcom/cps2.cpp|0|||||ringdest||Capcom\CPS2
smbomb|Super Muscle Bomber - the international blowout (940831 Japan)|clone|capcom/cps2.cpp|0|||||ringdest||Capcom\CPS2
spf2ta|Super Puzzle Fighter II Turbo (Super Puzzle Fighter 2 Turbo 960529 Asia)|clone|capcom/cps2.cpp|0|||||spf2t||Capcom\CPS2
spf2t|Super Puzzle Fighter II Turbo (Super Puzzle Fighter 2 Turbo 960620 USA)|parent|capcom/cps2.cpp|0|||||||Capcom\CPS2
spf2xj|Super Puzzle Fighter II X (Super Puzzle Fighter 2 X 960531 Japan)|clone|capcom/cps2.cpp|0|||||spf2t||Capcom\CPS2
ssideki2|Super Sidekicks 2 - the world championship|parent|neogeo/neogeo.cpp|0||||neogeo|||neogeo/SNK
ssideki3|Super Sidekicks 3 - the next glory|parent|neogeo/neogeo.cpp|0||||neogeo|||neogeo/SNK
ssideki|Super Sidekicks|parent|neogeo/neogeo.cpp|0||||neogeo|||neogeo/SNK
ssf2jr2|Super Street Fighter II - the new challengers (super street fighter 2 930910 Japan)|clone|capcom/cps2.cpp|0|||||ssf2||Capcom\CPS2
ssf2|Super Street Fighter II - the new challengers (super street fighter 2 930911 etc)|parent|capcom/cps2.cpp|0|||||||Capcom\CPS2
ssf2jr1|Super Street Fighter II - the new challengers (super street fighter 2 930911 Japan)|clone|capcom/cps2.cpp|0|||||ssf2||Capcom\CPS2
ssf2u|Super Street Fighter II - the new challengers (super street fighter 2 930911 USA)|clone|capcom/cps2.cpp|0|||||ssf2||Capcom\CPS2
ssf2ar1|Super Street Fighter II - the new challengers (super street fighter 2 930914 Asia)|clone|capcom/cps2.cpp|0|||||ssf2||Capcom\CPS2
ssf2a|Super Street Fighter II - the new challengers (super street fighter 2 931005 Asia)|clone|capcom/cps2.cpp|0|||||ssf2||Capcom\CPS2
ssf2j|Super Street Fighter II - the new challengers (super street fighter 2 931005 Japan)|clone|capcom/cps2.cpp|0|||||ssf2||Capcom\CPS2
ssf2tbr1|Super Street Fighter II - the tournament battle (930911 etc) [Linkup feature not implemented]|clone|capcom/cps2.cpp|0|||||ssf2||Capcom\CPS2
ssf2tbj|Super Street Fighter II - the tournament battle (930911 Japan) [Linkup feature not implemented]|clone|capcom/cps2.cpp|0|||||ssf2||Capcom\CPS2
ssf2tb|Super Street Fighter II - the tournament battle (931119 etc) [Linkup feature not implemented]|clone|capcom/cps2.cpp|0|||||ssf2||Capcom\CPS2
ssf2ta|Super Street Fighter II Turbo (super street fighter 2 X 940223 Asia)|clone|capcom/cps2.cpp|0|||||ssf2||Capcom\CPS2
ssf2t|Super Street Fighter II Turbo (super street fighter 2 X 940223 etc)|clone|capcom/cps2.cpp|0|||||ssf2||Capcom\CPS2
ssf2tur1|Super Street Fighter II Turbo (super street fighter 2 X 940223 USA)|clone|capcom/cps2.cpp|0|||||ssf2||Capcom\CPS2
ssf2tu|Super Street Fighter II Turbo (super street fighter 2 X 940323 USA)|clone|capcom/cps2.cpp|0|||||ssf2||Capcom\CPS2
ssf2xj|Super Street Fighter II X - grand master challenge (super street fighter 2 X 940223 Japan)|clone|capcom/cps2.cpp|0|||||ssf2||Capcom\CPS2
superman|Superman|parent|taito/taito_x.cpp|0|||||||Taito
suprmanj|Superman (Japan)|clone|taito/taito_x.cpp|0|||||superman||Taito
svcpcb|SvC Chaos - SNK vs Capcom (JAMMA PCB, set 1)|parent|neogeo/neopcb.cpp|0|||||||SNK
svcpcba|SvC Chaos - SNK vs Capcom (JAMMA PCB, set 2)|clone|neogeo/neopcb.cpp|0|||||svcpcb||SNK
svc|SvC Chaos - SNK vs Capcom (MVS)|parent|neogeo/neogeo.cpp|0||||neogeo|||neogeo/SNK
svcboot|SvC Chaos - SNK vs Capcom (MVS, bootleg) [Bootleg, bootleg of SvC Chaos - SNK vs Capcom (MVS)]|clone|neogeo/neogeo.cpp|0||||neogeo|svc||neogeo
svcplus|SvC Chaos - SNK vs Capcom Plus (bootleg, set 1) [Bootleg, bootleg of SvC Chaos - SNK vs Capcom (MVS)]|clone|neogeo/neogeo.cpp|0||||neogeo|svc||neogeo
svcplusa|SvC Chaos - SNK vs Capcom Plus (bootleg, set 2) [Bootleg, bootleg of SvC Chaos - SNK vs Capcom (MVS)]|clone|neogeo/neogeo.cpp|0||||neogeo|svc||neogeo
svcsplus|SvC Chaos - SNK vs Capcom Super Plus (bootleg) [Bootleg, bootleg of SvC Chaos - SNK vs Capcom (MVS)]|clone|neogeo/neogeo.cpp|0||||neogeo|svc||neogeo
mosyougi|Syougi No Tatsujin - master of syougi|parent||||||neogeo|||ADK/SNK
tws96|Tecmo World Soccer '96|parent||||||neogeo|||Tecmo
tekipaki|Teki Paki [No sound (sound MCU not dumped)]|parent|toaplan/toaplan2.cpp|0|||||||Toaplan
dynwarj|Tenchi wo Kurau (Japan)|clone|capcom/cps1.cpp|0|||||dynwar||Capcom\CPS1
wofj|Tenchi wo Kurau II - Sekiheki no Tatakai (921031 Japan)|clone|capcom/cps1.cpp|0|||||wof||Capcom\CPS1
tengai|Tengai|parent|psikyo/psikyo.cpp|0|||||||Psikyo
tetris1|Tetris (set 1, Japan, System 16B, FD1094 317-0091)|clone|sega/segas16b.cpp|0|||||tetris||Sega\System16
tetris2|Tetris (set 2, Japan, System 16B, FD1094 317-0092)|clone|sega/segas16b.cpp|0|||||tetris||Sega\System16
tetris3|Tetris (set 3, Japan, System 16A, FD1094 317-0093a)|clone|sega/segas16a.cpp|0|||||tetris||Sega\System16
tetris|Tetris (set 4, Japan, System 16A, FD1094 317-0093)|parent|sega/segas16a.cpp|0|||||||Sega\System16
irrmaze|The Irritating Maze|parent|neogeo/neogeo.cpp|0||||neogeo|||neogeo/Saurus/SNK
kod|The King of Dragons (910711 etc)|parent|capcom/cps1.cpp|0|||||||Capcom\CPS1
kodj|The King of Dragons (Japan 910805)|clone|capcom/cps1.cpp|0|||||kod||Capcom\CPS1
kodu|The King of Dragons (US 910910)|clone|capcom/cps1.cpp|0|||||kod||Capcom\CPS1
kof94|The King of Fighters '94|parent|neogeo/neogeo.cpp|0||||neogeo|||neogeo/SNK
kof95|The King of Fighters '95 (set 1)|parent|neogeo/neogeo.cpp|0||||neogeo|||neogeo/SNK
kof95a|The King of Fighters '95 (set 2)|clone|neogeo/neogeo.cpp|0||||neogeo|kof95||neogeo/SNK
kof96|The King of Fighters '96 (set 1)|parent|neogeo/neogeo.cpp|0||||neogeo|||neogeo/SNK
kof96h|The King of Fighters '96 (set 2)|clone|neogeo/neogeo.cpp|0||||neogeo|kof96||neogeo/SNK
kof97|The King of Fighters '97 (set 1)|parent|neogeo/neogeo.cpp|0||||neogeo|||neogeo/SNK
kof97a|The King of Fighters '97 (set 2)|clone|neogeo/neogeo.cpp|0||||neogeo|kof97||neogeo/SNK
kof97pls|The King of Fighters '97 Plus (bootleg) [Bootleg, bootleg of The King of Fighters '97]|clone|neogeo/neogeo.cpp|0||||neogeo|kof97||neogeo
kof98k|The King of Fighters '98 - the slugfest (korean release)|clone|neogeo/neogeo.cpp|0||||neogeo|kof98||neogeo/SNK
kof98n|The King of Fighters '98 - the slugfest (not encrypted)|clone|neogeo/neogeo.cpp|0||||neogeo|kof98||neogeo/SNK
kof98|The King of Fighters '98 - the slugfest|parent|neogeo/neogeo.cpp|0||||neogeo|||neogeo/SNK
kof99e|The King of Fighters '99 - millennium battle (earlier)|clone|neogeo/neogeo.cpp|0||||neogeo|kof99||neogeo/SNK
kof99n|The King of Fighters '99 - millennium battle (not encrypted)|clone|neogeo/neogeo.cpp|0||||neogeo|kof99||neogeo/SNK
kof99p|The King of Fighters '99 - millennium battle (prototype) [Prototype]|clone|neogeo/neogeo.cpp|0||||neogeo|kof99||neogeo/SNK
kof99|The King of Fighters '99 - millennium battle (set 1)|parent|neogeo/neogeo.cpp|0||||neogeo|||neogeo/SNK
kof99a|The King of Fighters '99 - millennium battle (set 2)|clone|neogeo/neogeo.cpp|0||||neogeo|kof99||neogeo/SNK
kof10th|The King of Fighters 10th Anniversary (bootleg) [Bootleg, bootleg of The King of Fighters 2002]|clone|neogeo/neogeo.cpp|0||||neogeo|kof2002||neogeo
kf2k5uni|The King of Fighters 10th Anniversary 2005 Unique (bootleg) [Bootleg, bootleg of The King of Fighters 2002]|clone|neogeo/neogeo.cpp|0||||neogeo|kof2002||neogeo
kf10thep|The King of Fighters 10th Anniversary Extra Plus (bootleg) [Bootleg, bootleg of The King of Fighters 2002]|clone|neogeo/neogeo.cpp|0||||neogeo|kof2002||neogeo
kof2000|The King of Fighters 2000|parent|neogeo/neogeo.cpp|0||||neogeo|||neogeo/SNK
kof2000n|The King of Fighters 2000 (not encrypted)|clone|neogeo/neogeo.cpp|0||||neogeo|kof2000||neogeo/SNK
kof2001|The King of Fighters 2001 (set 1)|parent|neogeo/neogeo.cpp|0||||neogeo|||Eolith/neogeo/SNK
kof2001h|The King of Fighters 2001 (set 2)|clone|neogeo/neogeo.cpp|0||||neogeo|kof2001||Eolith/neogeo/SNK
kof2002|The King of Fighters 2002 - challenge to ultimate battle|parent|neogeo/neogeo.cpp|0||||neogeo|||Eolith/neogeo/Playmore
kf2k2mp|The King of Fighters 2002 Magic Plus (bootleg) [Bootleg, bootleg of The King of Fighters 2002]|clone|neogeo/neogeo.cpp|0||||neogeo|kof2002||neogeo
kf2k2mp2|The King of Fighters 2002 Magic Plus II (bootleg) [Bootleg, bootleg of The King of Fighters 2002]|clone|neogeo/neogeo.cpp|0||||neogeo|kof2002||neogeo
kf2k2pls|The King of Fighters 2002 Plus (bootleg, set 1) [Bootleg, bootleg of The King of Fighters 2002]|clone|neogeo/neogeo.cpp|0||||neogeo|kof2002||neogeo
kf2k2pla|The King of Fighters 2002 Plus (bootleg, set 2) [Bootleg, bootleg of The King of Fighters 2002]|clone|neogeo/neogeo.cpp|0||||neogeo|kof2002||neogeo
kf2k3bl|The King of Fighters 2003 (bootleg, set 1) [Bootleg, bootleg of The King of Fighters 2003]|clone|neogeo/neogeo.cpp|0||||neogeo|kof2003||neogeo
kf2k3bla|The King of Fighters 2003 (bootleg, set 2) [Bootleg, bootleg of The King of Fighters 2003]|clone|neogeo/neogeo.cpp|0||||neogeo|kof2003||neogeo
kf2k3pcb|The King of Fighters 2003 (Japan, JAMMA PCB)|parent|neogeo/neopcb.cpp|0|||||||SNK
kof2003|The King of Fighters 2003 (MVS)|parent|neogeo/neogeo.cpp|0||||neogeo|||neogeo/SNK
kf2k3pl|The King of Fighters 2004 Plus / Hero (bootleg) [Bootleg, bootleg of The King of Fighters 2003]|clone|neogeo/neogeo.cpp|0||||neogeo|kof2003||neogeo
kf2k3upl|The King of Fighters 2004 Ultra Plus (bootleg) [Bootleg, bootleg of The King of Fighters 2003]|clone|neogeo/neogeo.cpp|0||||neogeo|kof2003||neogeo
kof2k4se|The King of Fighters Special Edition 2004 (bootleg) [Bootleg, bootleg of The King of Fighters 2002]|clone|neogeo/neogeo.cpp|0||||neogeo|kof2002||neogeo
lastblad|The Last Blade (set 1)|parent|neogeo/neogeo.cpp|0||||neogeo|||neogeo/SNK
lastbldh|The Last Blade (set 2)|clone|neogeo/neogeo.cpp|0||||neogeo|lastblad||neogeo/SNK
lastbld2|The Last Blade 2|parent|neogeo/neogeo.cpp|0||||neogeo|||neogeo/SNK
lastsold|The Last Soldier [Korean version of The Last Blade]|clone|neogeo/neogeo.cpp|0||||neogeo|lastblad||neogeo/SNK
punisher|The Punisher (930422 etc)|parent|capcom/cps1.cpp|0|||||||Capcom\CPS1
punishrj|The Punisher (930422 Japan)|clone|capcom/cps1.cpp|0|||||punisher||Capcom\CPS1
punishru|The Punisher (930422 USA)|clone|capcom/cps1.cpp|0|||||punisher||Capcom\CPS1
superspy|The Super Spy|parent|neogeo/neogeo.cpp|0||||neogeo|||neogeo/SNK
ssideki4|The Ultimate 11 - SNK football championship|parent|neogeo/neogeo.cpp|0||||neogeo|||neogeo/SNK
trally|Thrash Rally|parent|neogeo/neogeo.cpp|0||||neogeo|||Alpha Denshi/neogeo
3wonders|Three Wonders (wonder 3 910520 etc)|parent|capcom/cps1.cpp|0|||||||Capcom\CPS1
3wonderu|Three Wonders (wonder 3 910520 USA)|clone|capcom/cps1.cpp|0|||||3wonders||Capcom\CPS1
thndrbd1|Thunder Blade (deluxe/standing, unprotected)|clone|sega/segaxbd.cpp|0|||||thndrbld||Sega
thndrbld|Thunder Blade (upright, FD1094 317-0056)|parent|sega/segaxbd.cpp|0|||||||Sega
theroes|Thunder Heroes|parent|misc/cave.cpp|0|||||||Primetek Investments
tigerhb1|Tiger Heli (bootleg, set 1) [Bootleg]|clone|toaplan/slapfght.cpp|270|||||tigerh||Taito
tigerhb2|Tiger Heli (bootleg, set 2) [Bootleg]|clone|toaplan/slapfght.cpp|270|||||tigerh||Taito
tigerh|Tiger Heli (US) [Protection MCU not emulated]|parent|toaplan/slapfght.cpp|270|||||||Taito
timesca1|Time Scanner (set 1, System 16A, FD1089B 317-0024) [Incomplete Sound]|clone|sega/segas16b.cpp|270|||||timescan||Sega\System16
timescan|Time Scanner (set 2, System 16B) [Incomplete Sound]|parent|sega/segas16b.cpp|270|||||||Sega\System16
tophuntr|Top Hunter - Roddy & Cathy (set 1)|parent|neogeo/neogeo.cpp|0||||neogeo|||neogeo/SNK
tophunta|Top Hunter - Roddy & Cathy (set 2)|clone|neogeo/neogeo.cpp|0||||neogeo|tophuntr||neogeo/SNK
tpgolf|Top Player's Golf|parent|neogeo/neogeo.cpp|0||||neogeo|||neogeo/SNK
toppyrap|Toppy & Rappy|parent|kaneko/snowbros.cpp|0|||||||SemiCom
toryumon|Toryumon [Incomplete Sound]|parent|sega/segas16b.cpp|0|||||||Sega\System16/Westone
tturfu|Tough Turf (set 1, US, 8751 317-0099) [Incomplete Sound]|clone|sega/segas16b.cpp|0|||||tturf||Sega\System16/Sunsoft
tturf|Tough Turf (set 2, Japan, 8751 317-0104) [No Sound, Missing Z80 Program]|parent|sega/segas16b.cpp|0|||||||Sega\System16/Sunsoft
truxton2|Truxton II|parent|toaplan/toaplan2.cpp|270|||||||Toaplan
truxton|Truxton|parent|toaplan/toaplan1.cpp|270|||||||Taito/Toaplan
toutrun|Turbo Out Run (Out Run upgrade, FD1094 317-0118)|parent|sega/segaorun.cpp|0|||||||Sega
toutrun2|Turbo Out Run (upright, FD1094 317-unknown)|clone|sega/segaorun.cpp|0|||||toutrun||Sega
twinadvk|Twin Adventure (Korea)|clone|kaneko/snowbros.cpp|0|||||twinadv||Barko
twinadv|Twin Adventure (World)|parent|kaneko/snowbros.cpp|0|||||||Barko
twinhwku|Twin Hawk (US)|clone|taito/taito_x.cpp|270|||||twinhawk||Taito
twinhawk|Twin Hawk (World)|parent|taito/taito_x.cpp|270|||||||Taito
twinkle|Twinkle|parent|kaneko/snowbros.cpp|0|||||||SemiCom
twinspri|Twinklestar Sprites|parent|neogeo/neogeo.cpp|0||||neogeo|||ADK/neogeo
unsquad|U.N. Squadron (US)|parent|capcom/cps1.cpp|0|||||||Capcom\CPS1/Daipro
cawingj|U.S. Navy (901012 Japan)|clone|capcom/cps1.cpp|0|||||cawing||Capcom\CPS1
uecology|Ultimate Ecology (931203 Japan)|clone|capcom/cps2.cpp|0|||||ecofghtr||Capcom\CPS2
uopokoj|Uo Poko (Japan, ver. 1998 Feb 06)|clone|misc/cave.cpp|0|||||uopoko||Cave/Jaleco
vfive|V-Five (Japan) [No sound (sound MCU not dumped)]|parent|toaplan/toaplan2.cpp|270|||||||Toaplan
vliner|V-Liner (set 1)|parent|neogeo/neogeo.cpp|0||||neogeo|||Brezzasoft/Dyna/neogeo
vlinero|V-Liner (set 2)|clone|neogeo/neogeo.cpp|0||||neogeo|vliner||Brezzasoft/Dyna/neogeo
vampjr1|Vampire - the night warriors (940630 Japan)|clone|capcom/cps2.cpp|0|||||dstlk||Capcom\CPS2
vampj|Vampire - the night warriors (940705 Japan)|clone|capcom/cps2.cpp|0|||||dstlk||Capcom\CPS2
vampja|Vampire - the night warriors (940705 Japan, alt)|clone|capcom/cps2.cpp|0|||||dstlk||Capcom\CPS2
vhuntjr2|Vampire Hunter - darkstalkers' revenge (950302 Japan)|clone|capcom/cps2.cpp|0|||||nwarr||Capcom\CPS2
vhuntjr1|Vampire Hunter - darkstalkers' revenge (950307 Japan)|clone|capcom/cps2.cpp|0|||||nwarr||Capcom\CPS2
vhuntj|Vampire Hunter - darkstalkers' revenge (950316 Japan)|clone|capcom/cps2.cpp|0|||||nwarr||Capcom\CPS2
vhunt2r1|Vampire Hunter 2 - darkstalkers revenge (970913 Japan)|clone|capcom/cps2.cpp|0|||||vhunt2||Capcom\CPS2
vhunt2|Vampire Hunter 2 - darkstalkers revenge (970929 Japan)|parent|capcom/cps2.cpp|0|||||||Capcom\CPS2
vsava|Vampire Savior - the lord of vampire (970519 Asia)|clone|capcom/cps2.cpp|0|||||vsav||Capcom\CPS2
vsav|Vampire Savior - the lord of vampire (970519 Euro)|parent|capcom/cps2.cpp|0|||||||Capcom\CPS2
vsavh|Vampire Savior - the lord of vampire (970519 Hispanic)|clone|capcom/cps2.cpp|0|||||vsav||Capcom\CPS2
vsavj|Vampire Savior - the lord of vampire (970519 Japan)|clone|capcom/cps2.cpp|0|||||vsav||Capcom\CPS2
vsavu|Vampire Savior - the lord of vampire (970519 USA)|clone|capcom/cps2.cpp|0|||||vsav||Capcom\CPS2
vsav2|Vampire Savior 2 - the lord of vampire (970913 Japan)|parent|capcom/cps2.cpp|0|||||||Capcom\CPS2
varthr1|Varth - operation thunderstorm (920612 etc)|clone|capcom/cps1.cpp|270|||||varth||Capcom\CPS1
varthu|Varth - operation thunderstorm (920612 USA)|clone|capcom/cps1.cpp|270|||||varth||Capcom\CPS1/Romstar
varth|Varth - operation thunderstorm (920714 etc)|parent|capcom/cps1.cpp|270|||||||Capcom\CPS1
varthj|Varth - operation thunderstorm (920714 Japan)|clone|capcom/cps1.cpp|270|||||varth||Capcom\CPS1
viewpoin|Viewpoint|parent|neogeo/neogeo.cpp|0||||neogeo|||neogeo/Sammy
gowcaizr|Voltage Fighter - Gowcaizer|parent|neogeo/neogeo.cpp|0||||neogeo|||neogeo/Technos
wakuwak7|Waku Waku 7|parent|neogeo/neogeo.cpp|0||||neogeo|||neogeo/Sunsoft
wof|Warriors of Fate (921002 etc)|parent|capcom/cps1.cpp|0|||||||Capcom\CPS1
wofu|Warriors of Fate (921031 USA)|clone|capcom/cps1.cpp|0|||||wof||Capcom\CPS1
willowje|Willow (Japan, English)|clone|capcom/cps1.cpp|0|||||willow||Capcom\CPS1
willowj|Willow (Japan, Japanese)|clone|capcom/cps1.cpp|0|||||willow||Capcom\CPS1
willow|Willow (US)|parent|capcom/cps1.cpp|0|||||||Capcom\CPS1
wjammers|Windjammers - flying disc game|parent|neogeo/neogeo.cpp|0||||neogeo|||Data East/neogeo
wonder3|Wonder 3 (910520 Japan)|clone|capcom/cps1.cpp|0|||||3wonders||Capcom\CPS1
wb31|Wonder Boy III - Monster Lair (set 1, System 16A, FD1094 317-0084)|clone|sega/segas16a.cpp|0|||||wb3||Sega\System16/Westone
wb32|Wonder Boy III - Monster Lair (set 2, Japan, System 16B, FD1094 317-0085)|clone|sega/segas16b.cpp|0|||||wb3||Sega\System16/Westone
wb33|Wonder Boy III - Monster Lair (set 3, World, System 16B, FD1094 317-0089)|clone|sega/segas16b.cpp|0|||||wb3||Sega\System16/Westone
wb34|Wonder Boy III - Monster Lair (set 4, Japan, System 16B, FD1094 317-0087)|clone|sega/segas16b.cpp|0|||||wb3||Sega\System16/Westone
wb3|Wonder Boy III - Monster Lair (set 5, World, System 16B, 8751 317-0098)|parent|sega/segas16b.cpp|0|||||||Sega\System16/Westone
wc90|World Cup '90 (set 1)|parent|tecmo/wc90.cpp|0|||||||Tecmo
wc90a|World Cup '90 (set 2)|clone|tecmo/wc90.cpp|0|||||wc90||Tecmo
wc90t|World Cup '90 (trackball)|clone|tecmo/wc90.cpp|0|||||wc90||Tecmo
wh1|World Heroes (set 1)|parent|neogeo/neogeo.cpp|0||||neogeo|||Alpha Denshi/neogeo
wh1h|World Heroes (set 2)|clone|neogeo/neogeo.cpp|0||||neogeo|wh1||Alpha Denshi/neogeo
wh2|World Heroes 2|parent|neogeo/neogeo.cpp|0||||neogeo|||ADK/neogeo
wh2j|World Heroes 2 Jet|parent|neogeo/neogeo.cpp|0||||neogeo|||ADK/neogeo/SNK
whp|World Heroes Perfect|parent|neogeo/neogeo.cpp|0||||neogeo|||ADK/neogeo/SNK
wrestwa1|Wrestle War (set 1, Japan, FD1094 317-0090) [Incomplete Sound]|clone|sega/segas16b.cpp|270|||||wrestwar||Sega\System16
wrestwa2|Wrestle War (set 2, World, FD1094 317-0102) [Incomplete Sound]|clone|sega/segas16b.cpp|270|||||wrestwar||Sega\System16
wrestwar|Wrestle War (set 3, World, 8751 317-0103) [Incomplete Sound]|parent|sega/segas16b.cpp|270|||||||Sega\System16
xmcotajr|X-Men - children of the atom (941208 Japan, rent version)|clone|capcom/cps2.cpp|0|||||xmcota||Capcom\CPS2
xmcotaa|X-Men - children of the atom (941217 Asia)|clone|capcom/cps2.cpp|0|||||xmcota||Capcom\CPS2
xmcotaj1|X-Men - children of the atom (941217 Japan)|clone|capcom/cps2.cpp|0|||||xmcota||Capcom\CPS2
xmcotaj|X-Men - children of the atom (941219 Japan)|clone|capcom/cps2.cpp|0|||||xmcota||Capcom\CPS2
xmcota|X-Men - children of the atom (950105 Euro)|parent|capcom/cps2.cpp|0|||||||Capcom\CPS2
xmcotau|X-Men - children of the atom (950105 USA)|clone|capcom/cps2.cpp|0|||||xmcota||Capcom\CPS2
xmcotah|X-Men - children of the atom (950331 Hispanic)|clone|capcom/cps2.cpp|0|||||xmcota||Capcom\CPS2
xmvsfjr2|X-Men vs Street Fighter (960909 Japan)|clone|capcom/cps2.cpp|0|||||xmvsf||Capcom\CPS2
xmvsfr1|X-Men vs Street Fighter (960910 Euro)|clone|capcom/cps2.cpp|0|||||xmvsf||Capcom\CPS2
xmvsfjr1|X-Men vs Street Fighter (960910 Japan)|clone|capcom/cps2.cpp|0|||||xmvsf||Capcom\CPS2
xmvsfar1|X-Men vs Street Fighter (960919 Asia)|clone|capcom/cps2.cpp|0|||||xmvsf||Capcom\CPS2
xmvsf|X-Men vs Street Fighter (961004 Euro)|parent|capcom/cps2.cpp|0|||||||Capcom\CPS2
xmvsfh|X-Men vs Street Fighter (961004 Hispanic)|clone|capcom/cps2.cpp|0|||||xmvsf||Capcom\CPS2
xmvsfj|X-Men vs Street Fighter (961004 Japan)|clone|capcom/cps2.cpp|0|||||xmvsf||Capcom\CPS2
xmvsfur1|X-Men vs Street Fighter (961004 USA)|clone|capcom/cps2.cpp|0|||||xmvsf||Capcom\CPS2
xmvsfa|X-Men vs Street Fighter (961023 Asia)|clone|capcom/cps2.cpp|0|||||xmvsf||Capcom\CPS2
xmvsfb|X-Men vs Street Fighter (961023 Brazil)|clone|capcom/cps2.cpp|0|||||xmvsf||Capcom\CPS2
xmvsfu|X-Men vs Street Fighter (961023 USA)|clone|capcom/cps2.cpp|0|||||xmvsf||Capcom\CPS2
3in1semi|XESS - The New Revolution (SemiCom 3-in-1)|parent|kaneko/snowbros.cpp|0|||||||SemiCom
zedblade|Zed Blade|parent|neogeo/neogeo.cpp|0||||neogeo|||neogeo/NMK
zerowing|Zero Wing|parent|toaplan/toaplan1.cpp|0|||||||Toaplan
zintrckb|Zintrick (hack / bootleg) [Bootleg]|parent|neogeo/neogeo.cpp|0||||neogeo|||ADK/neogeo/SNK
zupapa|Zupapa!|parent|neogeo/neogeo.cpp|0||||neogeo|||neogeo/SNK
